<?xml version="1.0" encoding="UTF-8"?>
<svg width="300px" height="195px" viewBox="0 0 300 195" version="1.1" xmlns="http://www.w3.org/2000/svg" xmlns:xlink="http://www.w3.org/1999/xlink">
    <!-- Generator: Sketch 42 (36781) - http://www.bohemiancoding.com/sketch -->
    <title>Party Mode</title>
    <desc>Created with Sketch.</desc>
    <defs>
        <path d="M75.3511017,4.50112384 C76.9298494,3.11012678 79.3608176,1.62372158 80.3280345,0.16584965 C87.9329448,11.7218253 85.7685183,37.6960205 71.3342543,36.1703821 C56.0023059,34.5502272 56.9873517,28.7205228 51.1831587,19.6300003 C55.474571,32.2969903 57.9429799,45.3554211 60.9587355,58.3068521 C50.9727779,60.264948 41.0456556,62.2471188 31.130122,64.4682558 C30.1664709,60.2925896 29.2286716,56.0973067 28.2650204,51.9029156 C31.5981302,51.0076841 34.9481774,49.9947529 38.132416,49.1342964 C38.2438465,46.8881928 38.3107048,44.6715142 38.4043065,42.4378939 C34.6869843,43.7459661 30.6380448,45.1913547 26.8645616,45.9162782 C25.2644193,39.216309 23.5359091,32.5502231 21.4704329,26.0080785 C15.8962325,25.9973785 13.8191676,30.6474104 12.4196002,35.284959 C13.085509,45.9795864 19.4423974,47.3429419 26.8645616,45.9162782 C27.3405928,47.909149 27.8059267,49.9064781 28.2650204,51.9029156 C13.8726542,55.7673908 -0.199683495,57.4383706 0.844197633,35.2145174 C-0.161351396,28.7365728 7.65393968,18.0579953 10.699113,16.0526412 C12.1031376,15.1279848 12.535488,14.8292771 12.6317639,14.7543772 C19.0376818,11.1627515 25.4676686,6.96746865 32.1365625,4.8845397 C65.142283,-5.42845522 53.1559247,14.9942351 69.2562979,24.9006308 C79.9598681,24.2541739 76.8478365,12.0945412 75.3511017,4.50112384 Z M12.5907575,14.7677522 C12.6192837,14.7499189 12.6495928,14.7329773 12.6549415,14.7329773 C12.6576158,14.7329773 12.6522672,14.7392189 12.6317639,14.7543772 C12.6246324,14.7579439 12.6183923,14.7624022 12.6112607,14.7659689 C12.5007217,14.8274937 12.5417281,14.7980688 12.5907575,14.7677522 Z" id="path-1"></path>
        <path d="M0.503665958,17.8047625 C-0.747030218,10.9469686 25.3999189,0.415515791 27.457372,0.416407456 C27.5126416,0.416407456 27.5509737,0.423540774 27.5705854,0.43959074 C32.8140601,4.67232348 30.5943641,12.1569577 26.1451662,14.5805026 C21.6950769,17.0049392 17.7343904,18.6001275 13.4518926,20.8845726 C12.9161346,21.8591623 12.758349,23.4231423 13.0926406,24.3932736 C14.5617406,28.6741562 15.2748959,32.4869149 13.1300812,36.5341813 C6.27933276,32.8480391 1.78734557,24.8480226 0.503665958,17.8047625 Z" id="path-3"></path>
        <path d="M97.0319155,0.812306621 C97.1665236,0.62594868 97.4517857,0.490415633 97.7022815,0.490415633 C97.8003404,0.490415633 97.8921591,0.510923923 97.9688233,0.556398827 C99.9166288,1.72269637 102.164851,2.17922874 103.931693,3.54080087 C103.980723,3.57914246 104.013706,3.61302572 104.053821,3.66117562 C105.447148,5.38833031 105.938334,7.64245889 107.144458,9.54527155 C107.315615,9.81366265 107.110583,10.3326116 106.934077,10.4610113 C106.839584,10.5296695 106.86187,10.5154028 106.883265,10.5002445 C106.892179,10.4948945 106.901094,10.4886529 106.901094,10.4886529 C101.311739,15.3072094 95.3987898,20.4414152 90.4067024,25.5604628 C90.0198156,25.956362 89.9886151,25.918912 89.9092765,25.8823538 C89.8789674,25.8671955 89.8433097,25.8538205 89.7800171,25.8618455 C88.4687027,26.0294785 87.5514067,26.1302366 86.3978779,26.6170856 C73.1278399,39.6532247 60.2152711,52.9934216 47.6004446,66.6751261 C47.7662532,66.9078506 47.9900057,67.1717834 48.1879063,67.364383 C48.384024,67.5551993 48.679092,67.7986237 48.8769926,67.9145402 C49.7372363,68.4147641 50.8239067,68.7607301 51.7180252,68.6510553 C52.6112523,68.5413805 53.0088364,68.322031 53.8619485,68.5788304 C54.3834433,68.7357634 54.9138526,69.0014795 55.3337228,69.4464203 C56.0843188,70.2426769 56.5398468,71.2172665 56.4417879,72.3523558 C56.3446205,73.4874451 55.4576335,74.3479016 54.7346723,75.0897667 C53.8280736,76.0179898 52.4329634,76.8258381 51.4719866,77.301987 C50.0109096,78.0269105 49.5152667,77.9020774 47.9944629,78.8463505 C47.8295457,78.9480002 46.6974116,79.5115324 46.0725093,80.3300807 C44.7362344,82.0804186 44.4910873,83.3153744 44.0132732,86.1374934 C43.5354591,88.9605041 43.888471,90.5797674 42.4862293,94.7661336 C41.7659425,96.9186124 41.0518957,100.266814 36.5679315,103.455407 C29.0156164,108.827687 16.0745214,107.729156 8.47585121,99.7059565 C0.878072512,91.6836484 -2.35341262,81.7612026 4.63283537,72.282806 C4.75318034,72.1196313 4.90116007,72.0090649 4.9965446,71.9216817 C8.30291104,68.8909131 12.2867751,67.0942086 16.5024146,66.733976 C19.4958841,66.4780682 21.7681753,66.5939846 23.9762825,65.143246 C25.6798323,64.023315 25.8973447,62.6769012 26.3528727,61.182471 C26.5579048,60.5137224 26.411708,60.243548 26.4972866,59.8717238 C26.5142241,59.7994989 26.5204642,59.7682907 26.5222471,59.7602657 C28.0555311,53.7326117 31.6533997,49.515929 38.0575347,49.4526208 C40.3565692,49.4294375 41.8470639,50.4405853 43.5318934,51.7272576 C44.966227,52.822222 45.7551551,54.3933353 46.5850897,55.9394821 C57.6086883,43.9474824 69.174285,32.4958315 80.8058486,21.0941139 C81.2818798,19.9937995 81.3630012,19.122643 81.5368328,17.8734207 C81.5689248,17.6415878 81.2765311,17.7601792 81.846164,17.2599553 C87.2928879,12.4788487 92.6370957,6.88186883 97.0319155,0.812306621 Z M26.5142241,59.788799 C26.5186813,59.772749 26.5222471,59.7575907 26.5231385,59.7575907 L26.5222471,59.7602657 C26.5168984,59.7798823 26.5124412,59.8003906 26.5070925,59.8208989 C26.5062011,59.8226822 26.5106583,59.8057406 26.5142241,59.788799 Z" id="path-5"></path>
        <path d="M1.46642567,2.04369569 C2.67344108,1.13776427 4.79775255,0.218457873 6.49773659,0.218457873 C7.97664247,0.218457873 9.13462845,0.913956407 9.0891648,2.91931051 C8.98843161,7.22961809 3.45167184,8.29426585 0.190769053,9.11192246 L1.46642567,2.04369569 Z" id="path-7"></path>
        <path d="M133.832519,135.802229 C137.093422,134.984572 142.630181,133.919924 142.730023,129.609617 C142.830756,125.299309 137.365312,127.039839 135.108175,128.734002" id="path-9"></path>
        <path d="M11.5825342,5.64958809 C14.7204176,3.93670003 17.8984161,2.2915785 20.9756814,0.472582337 L24.6244839,19.5844421 C22.2146901,19.5798164 20.1515364,18.9710756 18.350379,19.5844421 C15.9851997,20.3898808 13.8600271,20.9603561 13.0655095,23.5925306 C13.0655095,40.3344421 23.7757076,39.6692747 36.025042,36.9621804 C35.9376804,39.194909 35.8672564,41.4276377 35.7950494,43.661258 C17.1478201,48.1935901 -0.217512379,51.2707253 0.711372451,25.4962629 C1.95404563,17.4980298 4.58380594,10.3219116 11.5825342,5.64958809 Z" id="path-10"></path>
        <path d="M123.210256,111.25 C117.5,111.25 112,112.161553 112,117.411553 C112.627577,132.883721 122.269222,131.584565 134.518557,128.877471 C134.431195,131.110199 134.360771,133.342928 134.288564,135.576548 C115.641335,140.109772 98.2760023,143.186016 99.2048871,117.411553 C100.44756,109.414212 103.115653,102.294268 110.076049,97.5648784 C113.091804,95.5158328 119.071666,92.5 119.071666,92.5" id="path-12"></path>
    </defs>
    <g id="Page-1" stroke="none" stroke-width="1" fill="none" fill-rule="evenodd">
        <g id="Party-Mode" transform="translate(4.000000, 4.000000)">
            <g id="Illustration">
                <g id="Character" transform="translate(97.438429, 44.894068)">
                    <g id="Group-82" transform="translate(5.002864, 0.654921)"></g>
                    <g id="Group-111" transform="translate(0.731871, 45.220240)"></g>
                </g>
                <g id="Explosion">
                    <polyline id="Stroke-18" stroke="#1D1C1C" stroke-width="1.5" stroke-linecap="round" stroke-linejoin="round" points="146.328822 48.9237288 152.786043 28.6483051 171.235248 88.5529661 221.048101 61.8262712 198.909056 115.279661 261.636352 124.495763 211.823499 150.300847 233.040084 172.419492"></polyline>
                    <polyline id="Stroke-18" stroke="#1D1C1C" stroke-width="1.5" stroke-linecap="round" stroke-linejoin="round" points="195.219215 125.417373 228.427783 130.025424 195.219215 147.536017 221.048101 177.027542"></polyline>
                    <polyline id="Stroke-20" stroke="#1D1C1C" stroke-width="1.5" stroke-linecap="round" stroke-linejoin="round" points="56.2728415 175.851231 72.5320026 149.379237 26.4089906 123.574153 89.4518716 113.351421 55.005258 41.5508475 95.5935086 71.0423729"></polyline>
                    <polyline id="Stroke-20" stroke="#1D1C1C" stroke-width="1.5" stroke-linecap="round" stroke-linejoin="round" points="67.9197014 180.713983 89.1362869 145.692797 56.8501785 128.13496 85.446446 124.495763"></polyline>
                    <path d="M139.8716,36.9427966 L151.433605,1.93988329 C152.125061,-0.153435123 153.24073,-0.146223299 153.921495,1.94362526 L178.131298,76.264239 L238.861878,39.0291254 C240.741198,37.8768778 241.621386,38.6157429 240.826497,40.6829052 L215.158849,107.433346 L292.301814,117.818828 C294.492733,118.113783 294.686385,119.185226 292.720585,120.219202 L230.272704,153.065678 L256.10159,178.870763" id="Stroke-18" stroke="#1D1C1C" stroke-width="1.5" stroke-linecap="round" stroke-linejoin="round"></path>
                    <path d="M41.1683544,179.792373 L58.695099,153.065678 L1.14644015,119.456281 C-0.28056276,118.622887 -0.105467013,117.725027 1.52377527,117.45315 L75.2993833,105.141949 L33.2531119,18.4455683 C32.5299724,16.9545069 33.0692499,16.4674315 34.4624273,17.3607363 L93.7485881,55.375" id="Stroke-20" stroke="#1D1C1C" stroke-width="1.5" stroke-linecap="round" stroke-linejoin="round"></path>
                    <path d="M141.768422,189.720931 C146.582221,179.262595 149.73615,168.250534 149.644332,155.856394 C159.241992,164.950984 161.375679,177.032008 160.523738,189.363145" id="Stroke-62" stroke="#1D1C1C" stroke-width="1.5" stroke-linecap="round" stroke-linejoin="round"></path>
                    <path d="M171.657549,188.451426 C173.205487,169.851849 170.645207,149.569079 160.587344,141.976205 C146.856429,131.610602 141.653069,147.287852 130.253281,146.142063 C131.139377,149.105956 131.292705,150.702928 131.881058,153.132715 C137.494058,160.097692 134.00069,174.438352 128.707747,188.005535" id="Stroke-64" stroke="#1D1C1C" stroke-width="1.5" stroke-linecap="round" stroke-linejoin="round"></path>
                    <g id="Group-69" transform="translate(98.875516, 82.107245)">
                        <mask id="mask-2" fill="white">
                            <use xlink:href="#path-1"></use>
                        </mask>
                        <g id="Clip-68"></g>
                        <path d="M0.778230764,80.2829116 C34.8848849,71.5249801 74.0068039,63.2726225 103.846115,55.8343548 C97.8235179,31.2038984 91.5611226,6.62783353 85.8951034,-18.0891144 C49.4510827,-9.84121509 17.7994658,1.48203604 -17.5159866,10.4432672 C-10.3915647,33.4803186 -4.63996693,56.7928944 0.778230764,80.2829116" id="Fill-67" fill="#B2ABAB" mask="url(#mask-2)"></path>
                    </g>
                    <g id="Group-74" transform="translate(98.875516, 58.923961)" stroke="#1D1C1C" stroke-width="1.5" stroke-linecap="round" stroke-linejoin="round">
                        <path d="M12.6110824,37.9488967 C12.218847,38.1682462 13.7449994,37.2302149 10.6989347,39.235569 C7.65376139,41.2400314 -0.16063824,51.9195006 0.8431279,58.3983369 C-0.441443155,85.7688792 21.20193,76.8959229 38.1331292,72.3172242 C38.2445597,70.0711206 38.3105265,67.8553336 38.4041282,65.6208217 C27.3760723,69.5013468 14.0710586,75.4844175 13.0655095,59.3524182 C14.4641854,54.716653 17.5732018,54.5760393 22.0808941,52.3260393 C26.0513865,64.9011878 28.1667833,74.8067523 31.1299437,87.6511836 C41.0454773,85.4300466 50.973491,83.4478758 60.9585572,81.4906716 C57.9428016,68.5383489 55.4752841,55.482593 51.1829804,42.8120364 C56.9871734,51.9177172 56.0012362,57.717105 71.3349674,59.3524182 C85.7683401,60.8923233 87.9327665,34.8940531 80.3278563,23.3505608 C79.3615308,24.804866 76.9296711,26.2939462 75.3518149,27.6840516 C76.8476582,35.277469 79.9596898,47.4379933 69.2561196,48.082667 C53.1557464,38.1825128 65.1421047,17.7491226 32.1363842,28.0656842 C25.4612502,30.1521798 19.0241318,34.3554876 12.6110824,37.9488967 Z" id="Stroke-70"></path>
                        <path d="M22.1546163,32.0268158 C20.6534244,28.7383561 18.0833908,25.9082121 16.0196975,22.9666099 C20.835279,19.7762333 16.0098916,11.2599429 14.5978441,7.70576709 C19.3688533,5.39457196 24.0319978,2.98261871 28.8796712,0.753456745 C31.0405319,4.56889037 36.4694269,10.7267274 36.1458327,14.8890186 C35.8240213,19.0504182 31.1938603,19.4802006 28.9117632,21.5711545 C30.1802882,23.5194421 31.6458225,25.6005877 32.8412491,27.7102666 C29.3289591,29.2555217 25.7400048,30.6572187 22.1546163,32.0268158 Z" id="Stroke-72" fill="#ECBF61"></path>
                    </g>
                    <g id="Group-77" transform="translate(102.441293, 45.548989)">
                        <mask id="mask-4" fill="white">
                            <use xlink:href="#path-3"></use>
                        </mask>
                        <g id="Clip-76"></g>
                        <path d="M7.69218264,45.5179715 C24.8613974,41.5964298 40.7504984,34.1965037 58.170209,30.1429956 C56.8981182,24.9312149 37.8345845,-0.717522654 32.310305,-12.4625312 C16.979248,-4.89051386 1.64016814,2.66723688 -13.6944545,10.2312293 C-8.20583277,21.901338 4.42771407,37.9299042 7.69218264,45.5179715" id="Fill-75" fill="#1D1C1C" mask="url(#mask-4)"></path>
                    </g>
                    <path d="M115.893007,66.4334724 C120.175505,64.1481356 124.136191,62.5547306 128.586281,60.1294024 C133.035479,57.7040741 135.256066,50.2238982 130.0117,45.9884905 C129.274476,45.3928584 101.660209,56.3112937 102.94478,63.3545539 C104.22846,70.3969224 108.720447,78.3978305 115.571196,82.0830811 C117.71601,78.034923 117.002855,74.223056 115.533755,69.943065 C115.200355,68.9720421 115.357249,67.408062 115.893007,66.4334724 Z" id="Stroke-78" stroke="#1D1C1C" stroke-width="1.5" stroke-linecap="round" stroke-linejoin="round"></path>
                    <g id="Group-85" transform="translate(105.115625, 44.657324)">
                        <mask id="mask-6" fill="white">
                            <use xlink:href="#path-5"></use>
                        </mask>
                        <g id="Clip-84"></g>
                        <path d="M86.7130034,-24.8956375 C101.56268,-10.3401015 116.40166,4.22613442 131.257577,18.7754288 C97.0172067,53.0287315 61.6420275,98.3663193 22.7287064,125.758262 C10.4187538,110.986943 -5.09237485,98.337786 -19.3465672,85.391705 C19.8172497,45.4593892 51.7149052,10.5917293 86.7130034,-24.8956375" id="Fill-83" fill="#ECBF61" mask="url(#mask-6)"></path>
                    </g>
                    <g id="Group-92" transform="translate(105.115625, 44.657324)" stroke="#1D1C1C" stroke-width="1.5" stroke-linecap="round" stroke-linejoin="round">
                        <path d="M107.144993,9.54527155 C107.315259,9.81366265 107.112901,10.3343949 106.933721,10.4610113 C101.265027,15.2563845 95.3806043,20.418232 90.4063458,25.5604628 C89.8786108,26.10527 90.0132189,25.8315289 89.7796605,25.8609538 C88.4692376,26.0294785 87.5510501,26.1302366 86.3975213,26.6170856 C73.1283748,39.6532247 60.2166974,52.995205 47.6009794,66.6742344 C47.7650052,66.9078506 47.9896491,67.1726751 48.1875497,67.3634913 C48.3845589,67.5551993 48.6796269,67.7995154 48.8766361,67.9145402 C49.7368797,68.4147641 50.8244416,68.7607301 51.7176686,68.6510553 C52.6117871,68.5413805 53.0084798,68.322031 53.8615919,68.5788304 C54.3830867,68.7348718 54.9143874,69.0014795 55.3342577,69.4464203 C56.0839622,70.2426769 56.5394902,71.2181582 56.4423228,72.3523558 C56.3442639,73.4865534 55.4572769,74.3479016 54.7343157,75.088875 C53.827717,76.0179898 52.4326069,76.8258381 51.4725215,77.301987 C50.010553,78.0260189 49.5149101,77.9020774 47.9941063,78.8454588 C47.8300806,78.9480002 46.697055,79.5115324 46.0730441,80.3300807 C44.7358779,82.0804186 44.4907307,83.3153744 44.0129166,86.1383851 C43.5351026,88.9613958 43.8881145,90.5806591 42.4867642,94.7661336 C41.7664773,96.916829 41.0515391,100.267705 36.5684663,103.455407 C29.0161513,108.825904 16.0750562,107.729156 8.47638608,99.7059565 C0.878607378,91.6827567 -2.35287775,81.7620943 4.6324788,72.282806 C4.75282376,72.1187396 4.90080349,72.0081732 4.99707946,71.9207901 C8.30344591,68.8909131 12.2873099,67.0942086 16.5029494,66.733976 C19.496419,66.4780682 21.7678187,66.5948763 23.9759259,65.1441377 C25.6803672,64.023315 26.0035605,61.8879735 27.0151444,58.8565448 C28.0267283,54.8146399 31.6325399,49.5177123 38.0580696,49.4517291 C40.3562126,49.4285458 41.8475987,50.441477 43.5315368,51.7272576 C44.9667619,52.8213303 45.75569,54.3933353 46.5856245,55.9394821 C57.6083317,43.948374 69.1739285,32.4967232 80.8063835,21.0941139 C81.2815232,19.9937995 81.3626447,19.122643 81.5364763,17.872529 C81.5685683,17.6415878 81.2761746,17.7601792 81.8458074,17.2599553 C87.2925313,12.4788487 92.6376306,6.88276049 97.0315589,0.811414956 C97.2187622,0.553723833 97.6956848,0.393224171 97.9693582,0.557290492 C99.9171637,1.72269637 102.165386,2.17922874 103.931337,3.54169253 C105.447683,5.38833031 105.937978,7.64245889 107.144993,9.54527155 Z" id="Stroke-86"></path>
                        <path d="M34.9308834,77.9175032 C33.236248,76.306265 31.887493,75.0142427 30.5726128,73.6294873 C29.2577327,72.2447319 29.1507594,71.057926 30.0306148,69.5947041 C30.1812688,69.345038 30.474554,69.0605969 30.7027637,68.8831556 C32.0417128,67.8372328 33.4635663,67.9210493 34.8328245,69.0757552 C36.2020828,70.2295695 37.8592775,71.9469158 39.1108651,73.2442881 C40.3633442,74.542552 40.5077581,75.9335491 39.5182551,77.3432711 C39.3497722,77.5840206 38.9878458,77.8247701 38.8202543,78.0548196 C37.8387743,79.4065834 35.568266,78.5229436 34.9308834,77.9175032" id="Stroke-88"></path>
                        <path d="M27.6426141,85.2157795 C26.1209189,83.8595574 24.9246008,82.7583514 23.748786,81.5751122 C22.5729711,80.3927647 22.5337475,79.3423836 23.3396131,78.0985112 C23.476004,77.8871866 23.7363057,77.6437622 23.9377721,77.4939625 C25.1198271,76.6138893 26.3616088,76.6557976 27.5588184,77.6598121 C28.7560279,78.6647183 30.2411739,80.1439902 31.317147,81.2781878 C32.3931201,82.4132771 32.5116822,83.5947329 31.6719418,84.8172054 C31.5275278,85.0249633 31.2137395,85.2175629 31.0613025,85.4155124 C30.1680755,86.57111 28.2149213,85.7249201 27.6426141,85.2157795" id="Stroke-90"></path>
                    </g>
                    <g id="Group-95" transform="translate(133.641839, 126.690485)">
                        <mask id="mask-8" fill="white">
                            <use xlink:href="#path-7"></use>
                        </mask>
                        <g id="Clip-94"></g>
                        <path d="M-6.11994255,19.1055231 C2.81589386,17.2392687 11.715181,15.2517478 20.6697378,13.4666349 C18.7540242,5.39082697 16.9488498,-2.70905596 15.0812743,-10.7946722 C6.13563196,-8.61098518 -2.81268466,-6.35239828 -11.6968173,-3.92707006 C-9.79358399,3.73589712 -7.81546936,11.394406 -6.11994255,19.1055231" id="Fill-93" mask="url(#mask-8)"></path>
                    </g>
                    <g id="Stroke-96" stroke-linecap="round" stroke-width="1.5" stroke="#1D1C1C" stroke-linejoin="round">
                        <use fill="#B2ABAB" fill-rule="evenodd" xlink:href="#path-9"></use>
                        <use xlink:href="#path-9"></use>
                    </g>
                    <g id="Group-100" transform="translate(98.875516, 91.915558)">
                        <g id="Fill-98">
                            <mask id="mask-11" fill="white">
                                <use xlink:href="#path-10"></use>
                            </mask>
                            <use id="Mask" stroke="#F94747" stroke-width="1.5" xlink:href="#path-10"></use>
                            <path d="M47.6040104,49.79395 C42.7073075,29.3177599 39.9108471,7.20536481 27.8718936,-10.5779977 C13.4955734,-4.43175232 -1.97009163,-1.86554107 -17.2565763,2.01498409 C-11.1983217,21.6057511 -6.09480382,41.4033844 -1.48603744,61.3829173 C14.7917332,57.2036844 31.0908985,52.9388517 47.6040104,49.79395 Z" fill="#B2ABAB" mask="url(#mask-11)"></path>
                        </g>
                    </g>
                    <g id="Stroke-101" stroke-linecap="round" stroke-width="1.5" stroke="#1D1C1C" stroke-linejoin="round">
                        <use xlink:href="#path-12"></use>
                        <use xlink:href="#path-12"></use>
                    </g>
                </g>
            </g>
        </g>
    </g>
</svg>