<?xml version="1.0" encoding="utf-8"?>
<!-- Generator: Adobe Illustrator 22.1.0, SVG Export Plug-In . SVG Version: 6.00 Build 0)  -->
<svg version="1.1" id="Layer_1" xmlns="http://www.w3.org/2000/svg" xmlns:xlink="http://www.w3.org/1999/xlink" x="0px" y="0px"
	 viewBox="0 0 642 333" style="enable-background:new 0 0 642 333;" xml:space="preserve">
<style type="text/css">
	.st0{fill:#B2ABAB;}
	.st1{fill:#FFFFFF;}
	.st2{fill:#ECBF61;}
	.st3{fill:#1D1C1C;}
	.st4{fill:none;stroke:#FFFFFF;stroke-width:2;stroke-linecap:round;stroke-linejoin:round;}
	.st5{fill:none;stroke:#FFFFFF;stroke-width:2;stroke-linecap:round;stroke-linejoin:round;stroke-dasharray:5.916,4.93;}
</style>
<title>Group 2</title>
<desc>Created with Sketch.</desc>
<g id="Stroke-319_3_">
	<path class="st0" d="M140.2,104.6c0,3.2-2.6,5.7-5.7,5.7c-3.2,0-5.7-2.6-5.7-5.7c0-1.6,0.6-3,1.7-4c1-1,2.5-1.7,4-1.7
		C137.6,98.9,140.2,101.4,140.2,104.6z"/>
	<path class="st0" d="M147.2,120.9v8.1c-0.3-0.1-0.6-0.4-0.8-0.8h-8.8l0,0h-4.4l0,0c-0.9,0-1.3-0.8-1.5-1.1l0,0h-0.6
		c-0.1,0-0.3,0.1-0.5,0.3c-0.3,0.3-0.7,0.5-1.2,0.5c-0.3,0-1.1-0.3-2.1-0.6c-0.8-0.4-1.7-0.9-2.2-1.4c-0.2-0.3-0.3-0.6-0.3-0.9
		c0-0.9,1-1.7,2.1-2.2c1-0.5,2.2-0.9,2.5-0.9c0.5,0,0.9,0.3,1.2,0.5c0.2,0.1,0.4,0.3,0.5,0.3h0.6l0,0c0.2-0.4,0.6-1.1,1.5-1.1h4.1
		h0.2h8.8C146.5,121.3,146.9,121.1,147.2,120.9z"/>
</g>
<g id="Stroke-291_1_">
	<path class="st1" d="M389.3,297.9L389.3,297.9l46.9,0.1l0,0c16.5,0,30-13.4,30-30l0.1-12.3c0-0.1,0-0.3-0.1-0.4h2.9l1.8-12l-3-3
		l-8.1-2.8l2.3,17.8h2.2c0,0.1-0.1,0.3-0.1,0.4l-0.1,12.3c0,15.4-12.6,28-28,28l0,0l-46.9-0.1l0,0 M237.7,296.1h-0.2
		c-14.7-0.1-26.7-12.1-26.8-26.8l0.1-71.7v-39.4c0-19.3-15.7-35-35-35h-13.6c-0.3-0.4-0.8-0.8-1.3-0.9c-0.4-0.1-0.7-0.2-1.1-0.2H153
		c-0.4-0.9-1.5-1.5-2.8-1.5h-0.7c-0.3,0-0.6,0-0.9,0v1c0.2,0,0.6,0,0.9,0h0.7l0,0c1.1,0,1.9,0.5,1.9,1l0.1,0.4h7.6
		c0.3,0,0.5,0,0.8,0.1s0.5,0.2,0.7,0.5s0.4,0.6,0.4,1c0,0.1,0,0.2,0,0.4c-0.1,0.4-0.4,0.8-0.8,1c-0.3,0.1-0.6,0.2-1,0.2h-7.6v0.5
		c-0.1,0.5-0.8,1-2,1h-0.7c-0.4,0-0.7,0-1,0v1c0.2,0,0.5,0,0.7,0h0.2h0.7c1.3,0,2.5-0.6,2.8-1.5h6.8c0.5,0,0.9-0.1,1.4-0.3
		c0.7-0.3,1.2-1,1.4-1.7h13.3c18.2,0,33,14.8,33,33v39.3l-0.1,71.7c0.1,15.7,12.9,28.5,28.6,28.8 M467.4,253.3h-3.5l-1.9-14.9l5,1.7
		l2,2L467.4,253.3z"/>
</g>
<g id="Stroke-317_1_">
	<path class="st2" d="M466.2,255.3h-1.8"/>
</g>
<path class="st3" d="M148.7,75.3c0-6.3-5.1-11.5-11.5-11.5H11.7c-3,0-5.9,1.2-8.1,3.4c-2.2,2.2-3.4,5-3.4,8.1v58.6
	c0,3.1,1.2,6,3.5,8.2c2.2,2.1,5,3.2,8,3.1h125.5c3,0,5.9-1.2,8.1-3.4c2.2-2.2,3.4-5,3.4-8.1v-12.9V75.3z M146.7,133.7
	c0,2.5-1,4.9-2.8,6.7c-0.9,0.9-1.9,1.6-3.1,2.1c-1.1,0.5-2.3,0.7-3.6,0.7H11.6c-2.5,0.1-4.8-0.8-6.6-2.6s-2.8-4.2-2.8-6.7V75.3
	c0-2.5,1-4.9,2.8-6.7c0.9-0.9,1.9-1.6,3.1-2.1c1.1-0.5,2.4-0.7,3.6-0.7h125.5c5.2,0,9.5,4.3,9.5,9.5v46.3V133.7L146.7,133.7z"/>
<g id="Stroke-319_2_">
	<path class="st0" d="M137.3,127.5L137.3,127.5H133l0,0c-0.9,0-1.3-0.6-1.5-0.9l0,0h-0.6c-0.1,0-0.3,0.1-0.5,0.2
		c-0.3,0.2-0.7,0.4-1.2,0.4c-0.3,0-1.1-0.2-2-0.5c-0.8-0.3-1.7-0.7-2.1-1.1c-0.2-0.2-0.3-0.5-0.3-0.7c0-0.7,1-1.3,2-1.7
		c1-0.4,2.1-0.7,2.4-0.7c0.5,0,0.9,0.2,1.2,0.4c0.2,0.1,0.4,0.2,0.5,0.2h0.6l0,0c0.2-0.3,0.6-0.9,1.5-0.9h4h0.2h8.6
		c0.2-0.3,1.5-0.4,1.8-0.6V75.3c0-5.2-4.2-9.5-9.5-9.5H11.6c-1.3,0-2.5,0.2-3.6,0.7s-2.2,1.2-3.1,2.1c-1.8,1.8-2.8,4.2-2.8,6.7v58.6
		c0,2.5,1,4.9,2.8,6.7c1.8,1.7,4.1,2.6,6.6,2.6h126.6c1.3,0,2.5-0.3,3.6-0.7c1.1-0.5,2.2-1.2,3.1-2.1c1.8-1.8,2.8-4.2,2.8-6.7V128
		c-0.3-0.1-1.6-0.3-1.8-0.6L137.3,127.5z M130.4,100.5c1-1,2.5-1.7,4-1.7c3.1,0,5.7,2.6,5.7,5.7c0,3.2-2.6,5.7-5.7,5.7
		c-3.2,0-5.7-2.6-5.7-5.7C128.8,103,129.4,101.6,130.4,100.5z M16.6,112.6c0,0.6-0.2,1.2-0.6,1.6s-1,0.6-1.6,0.6
		c-1.3,0-2.2-0.9-2.2-2.2v-16c0-0.7,0.2-1.2,0.6-1.6c0.4-0.4,1-0.6,1.6-0.6c0.7,0,1.2,0.2,1.6,0.6s0.6,1,0.6,1.6V112.6z
		 M124.1,136.4c-0.3,0.4-0.8,0.6-1.3,0.6l-98-0.2c-0.5,0-1-0.2-1.3-0.5S23,135.6,23,135V74c0-1,0.7-1.7,1.7-1.7h98
		c0.5,0,1,0.2,1.3,0.5c0.2,0.2,0.3,0.4,0.4,0.6s0.1,0.4,0.1,0.6v61.2C124.5,135.7,124.4,136.1,124.1,136.4z"/>
	<path class="st0" d="M140.2,104.6c0,3.2-2.6,5.7-5.7,5.7c-3.2,0-5.7-2.6-5.7-5.7c0-1.6,0.6-3,1.7-4c1-1,2.5-1.7,4-1.7
		C137.6,98.9,140.2,101.4,140.2,104.6z"/>
	<path class="st1" d="M148.4,121.6v6.4c-0.3-0.1-0.6-0.3-0.8-0.6H139l0,0h-4.3l0,0c-0.9,0-1.3-0.6-1.5-0.9l0,0h-0.6
		c-0.1,0-0.3,0.1-0.5,0.2c-0.3,0.2-0.7,0.4-1.2,0.4c-0.3,0-1.1-0.2-2-0.5c-0.8-0.3-1.7-0.7-2.1-1.1c-0.2-0.2-0.3-0.5-0.3-0.7
		c0-0.7,1-1.3,2-1.7c1-0.4,2.1-0.7,2.4-0.7c0.5,0,0.9,0.2,1.2,0.4c0.2,0.1,0.4,0.2,0.5,0.2h0.6l0,0c0.2-0.3,0.6-0.9,1.5-0.9h4h0.2
		h8.6C147.8,121.9,148.1,121.7,148.4,121.6z"/>
</g>
<g id="Stroke-321_1_">
	<path class="st3" d="M134.5,98.9c-1.6,0-3,0.6-4,1.7c-1,1-1.7,2.5-1.7,4c0,3.1,2.6,5.7,5.7,5.7c3.1,0,5.7-2.5,5.7-5.7
		S137.6,98.9,134.5,98.9z M137.1,107.2c-0.7,0.7-1.6,1.1-2.6,1.1c-2,0-3.7-1.7-3.7-3.7s1.7-3.7,3.7-3.7s3.7,1.7,3.7,3.7
		C138.2,105.6,137.8,106.5,137.1,107.2z"/>
</g>
<g id="Stroke-323_1_">
	<path class="st3" d="M16,94.9c-0.4-0.4-1-0.6-1.6-0.6c-0.7,0-1.2,0.2-1.6,0.6c-0.4,0.4-0.6,1-0.6,1.6v16c0,1.3,0.9,2.2,2.2,2.2
		c0.6,0,1.2-0.2,1.6-0.6s0.6-1,0.6-1.6v-16C16.6,95.9,16.4,95.3,16,94.9z M15.6,112.6c0,0.4-0.1,0.7-0.3,0.9
		c-0.2,0.2-0.5,0.3-0.9,0.3c-0.8,0-1.2-0.5-1.2-1.2v-16c0-0.4,0.1-0.7,0.3-0.9c0.2-0.2,0.5-0.3,0.9-0.3c0.8,0,1.2,0.5,1.2,1.3V112.6
		z"/>
</g>
<g id="Fill-325_1_">
	<path class="st3" d="M124.5,74.1c0-0.2,0-0.5-0.1-0.6c-0.1-0.2-0.2-0.5-0.4-0.6c-0.3-0.3-0.7-0.5-1.3-0.5h-98c-1,0-1.7,0.7-1.7,1.7
		v61c0,0.5,0.2,1,0.5,1.3s0.8,0.5,1.3,0.5l98,0.2c0.6,0,1-0.2,1.3-0.6c0.3-0.3,0.4-0.7,0.4-1.2V74.1z M24.8,135V74.1h97.9v61.1
		L24.8,135z"/>
</g>
<path class="st0" d="M602.9,173.9l-8.2-8.2h-6.8v81h6.8l6.8-6.9l13-5.2v-56.7L602.9,173.9z M435.7,136.6l-2,0.7l9.1,25.4l1.8-0.7
	L435.7,136.6z M627.2,133.2v-10.3c0-50.4-40.1-90-91.2-90c-51.2,0-91.2,39.5-91.2,90v10.4l-7.1,2.6l9,25.5l5.2-1.9
	c0.1,0,0.1,0,0.2-0.1l4.4-1.6l-7.9-22.3c0-0.4-3.2-40.5,21.6-68.9c14.9-17.4,37-26.9,65.7-28.4h0.1c28.6,1.5,50.8,11,65.9,28.3
	c24.8,28.4,21.6,68.5,21.6,68.9v0.3l-7.9,22l4.3,1.6c0.1,0,0.1,0,0.2,0.1l5.3,1.9l0,0l9-25.5L627.2,133.2z M636.1,136.6l-9,25.4
	l1.9,0.7l9.1-25.4L636.1,136.6z M477.1,165.7l-8.2,8.2l-11.7,3.9v56.7l11.8,4l8,8.2h6.8v-81L477.1,165.7L477.1,165.7z"/>
<path class="st3" d="M641.1,119.4c-0.5-0.2-1.1,0.1-1.3,0.6l-4.9,13.9l-5.7-2.1v-9c0-51.6-41-92-93.2-92c-52.3,0-93.2,40.4-93.2,92
	v9l-5.7,2.1l-4.9-13.9c-0.2-0.5-0.8-0.8-1.3-0.6c-0.5,0.2-0.8,0.8-0.6,1.3l4.9,14l-3.8,1.4l10.4,29.2l3.7-1.4l3.8,10.9l6.1,9.1V236
	l4.6,1.5l8.1,2.8l3,3l5.3,5.4h8v3.3c0,1.9,1.6,3.5,3.5,3.5h14.5c1.9,0,3.5-1.6,3.5-3.5v-90.9c0-1.9-1.6-3.5-3.5-3.5h-14.5
	c-1.9,0-3.5,1.6-3.5,3.5v2.6h-8l-6.5,6.5c-13.7-0.6-16.1-7.1-16.5-9.2l5.6-2.1l-8.5-23.8c-0.2-2.5-2.4-40.3,21.1-67.3
	c14.6-16.8,36.3-26.1,64.3-27.6c28,1.5,49.7,10.8,64.4,27.7c23.5,27,21.3,64.8,21.1,67.3l-8.5,23.8l5.5,2c-0.4,2.1-2.9,8.6-16.4,9.3
	l-6.5-6.5h-7.6v-2.6c0-1.9-1.6-3.5-3.5-3.5h-14.5c-1.9,0-3.5,1.6-3.5,3.5v90.9c0,1.9,1.6,3.5,3.5,3.5h14.4c1.9,0,3.5-1.6,3.5-3.5
	v-3.3h7.7l7.1-7.3l13.9-5.5v-52.2l6-8.9l3.9-11l3.7,1.4l10.5-29.2l-3.9-1.4l4.9-13.9C641.9,120.2,641.6,119.6,641.1,119.4z
	 M486.2,161.1c0-0.8,0.7-1.5,1.5-1.5h14.5c0.8,0,1.5,0.7,1.5,1.5v12.1h-7.3c-0.5,0-1,0.5-1,1c0,0.6,0.5,1,1,1h7.3v10.9h-7.3
	c-0.5,0-1,0.4-1,1s0.5,1,1,1h7.3V199h-7.3c-0.5,0-1,0.5-1,1c0,0.6,0.5,1,1,1h7.3v10.9h-7.3c-0.5,0-1,0.5-1,1c0,0.6,0.5,1,1,1h7.3
	v9.6h-7.3c-0.5,0-1,0.5-1,1s0.5,1,1,1h7.3v10.9h-7.3c-0.5,0-1,0.4-1,1c0,0.5,0.5,1,1,1h7.3V252c0,0.8-0.7,1.5-1.5,1.5h-14.5
	c-0.8,0-1.5-0.7-1.5-1.5V161.1z M585.9,252c0,0.8-0.7,1.5-1.5,1.5h-14.5c-0.8,0-1.5-0.7-1.5-1.5v-13.6h7.3c0.5,0,1-0.5,1-1
	c0-0.6-0.5-1-1-1h-7.3v-10.9h7.3c0.5,0,1-0.5,1-1s-0.5-1-1-1h-7.3v-9.6h7.3c0.5,0,1-0.4,1-1c0-0.5-0.5-1-1-1h-7.3V201h7.3
	c0.5,0,1-0.4,1-1c0-0.5-0.5-1-1-1h-7.3v-10.9h7.3c0.5,0,1-0.4,1-1s-0.5-1-1-1h-7.3v-10.9h7.3c0.5,0,1-0.4,1-1c0-0.5-0.5-1-1-1h-7.3
	v-12.1c0-0.8,0.7-1.5,1.5-1.5h14.4c0.8,0,1.5,0.7,1.5,1.5L585.9,252L585.9,252z M442.9,162.7l-9.1-25.4l2-0.7l9,25.5L442.9,162.7z
	 M477.1,165.7h6.8v81h-6.8l-8-8.2l-11.8-4v-56.7l11.7-3.9L477.1,165.7z M467.9,172.1l-0.1,0.1l-12.6,4.3v3.9l-4.2-6.3l-3.8-10.8
	l1.3-0.5l2.3-0.8l0.6-0.2C452.1,164.5,455,171,467.9,172.1z M614.6,234.6l-13,5.2l-6.8,6.9H588v-81h6.8l8.2,8.2l11.7,3.9v56.8
	L614.6,234.6L614.6,234.6z M620.7,174l-4.2,6.2v-3.8l-12.6-4.3l-0.1-0.1c12.9-1.1,15.8-7.6,16.5-10.4l4.2,1.5L620.7,174z
	 M625.2,161.3L625.2,161.3l-5.3-1.9c-0.1,0-0.1,0-0.2-0.1l-4.3-1.6l7.9-22v-0.3c0-0.4,3.2-40.5-21.6-68.9
	c-15.1-17.3-37.3-26.9-65.9-28.3h0.1c-28.6,1.5-50.8,11-65.9,28.3c-24.7,28.4-21.6,68.5-21.6,68.9l7.9,22.3l-4.4,1.6
	c-0.1,0-0.1,0-0.2,0.1l-5.2,1.9l-9-25.5l7.1-2.6v-10.3c0-50.4,40.1-90,91.2-90c51.2,0,91.2,39.5,91.2,90v10.4l7.1,2.6L625.2,161.3z
	 M638.1,137.3l-9.1,25.4l-1.9-0.7l9-25.4L638.1,137.3z"/>
<g>
	<g id="Stroke-329_1_">
		<path class="st3" d="M138.9,127.5l-0.7-0.5l-0.7-0.5c-0.1-0.1-0.3-0.7-0.3-1.7s0.2-1.6,0.3-1.7l0.7-0.5l0.7-0.5h-0.2h-4
			c-0.9,0-1.3,0.6-1.5,0.9l0,0h-0.6c-0.1,0-0.3-0.1-0.5-0.2c-0.3-0.2-0.7-0.4-1.2-0.4c-0.3,0-1.4,0.3-2.4,0.7c-1,0.4-2,1-2,1.7
			c0,0.3,0.1,0.5,0.3,0.7c0.4,0.4,1.3,0.8,2.1,1.1c0.8,0.3,1.6,0.5,2,0.5c0.5,0,0.9-0.2,1.2-0.4c0.2-0.1,0.4-0.2,0.5-0.2h0.6l0,0
			c0.2,0.3,0.6,0.9,1.5,0.9l0,0L138.9,127.5L138.9,127.5z M134.7,126.5c-0.4,0-0.5-0.2-0.7-0.5c-0.1-0.2-0.3-0.5-0.7-0.5l0,0h-0.8
			c-0.4,0-0.7,0.2-1,0.4c-0.2,0.1-0.5,0.3-0.7,0.3c-0.6,0-2.9-0.9-3.4-1.3c0.4-0.5,2.8-1.4,3.4-1.4c0.2,0,0.4,0.1,0.7,0.3
			c0.3,0.2,0.7,0.4,1,0.4h0.8c0.3,0,0.5-0.3,0.7-0.5c0.2-0.3,0.4-0.5,0.7-0.5h1.8c-0.2,0.6-0.2,1.3-0.2,1.6c0,0.4,0,1,0.2,1.6
			L134.7,126.5z"/>
	</g>
	<path class="st3" d="M146.5,123.1l0.1-0.3c0,0,0-0.1,0.1-0.1v-1.2c-0.3,0.1-0.6,0.3-0.8,0.6h-8.6h-0.2l-0.1,0.1
		c-0.1,0.1-0.3,0.2-0.3,0.4c-0.4,0.6-0.4,1.7-0.4,2.2s0.1,1.5,0.4,2.2c0.1,0.2,0.2,0.3,0.3,0.4l0.1,0.1h0.2h8.6
		c0.2,0.3,0.5,0.4,0.8,0.6v-1.2c0,0,0-0.1-0.1-0.1l-0.1-0.3h-9.1c-0.1-0.2-0.3-0.8-0.3-1.6c0-0.8,0.2-1.4,0.3-1.6L146.5,123.1z"/>
</g>
<rect x="237.3" y="296.1" class="st1" width="179.8" height="1.9"/>
<path class="st3" d="M148.7,75.3c0-6.3-5.1-11.5-11.5-11.5H11.7c-3,0-5.9,1.2-8.1,3.4c-2.2,2.2-3.4,5-3.4,8.1v58.6
	c0,3.1,1.2,6,3.5,8.2c2.2,2.1,5,3.2,8,3.1h125.5c3,0,5.9-1.2,8.1-3.4c2.2-2.2,3.4-5,3.4-8.1v-12.9V75.3z M146.7,133.7
	c0,2.5-1,4.9-2.8,6.7c-0.9,0.9-1.9,1.6-3.1,2.1c-1.1,0.5-2.3,0.7-3.6,0.7H11.6c-2.5,0.1-4.8-0.8-6.6-2.6s-2.8-4.2-2.8-6.7V75.3
	c0-2.5,1-4.9,2.8-6.7c0.9-0.9,1.9-1.6,3.1-2.1c1.1-0.5,2.4-0.7,3.6-0.7h125.5c5.2,0,9.5,4.3,9.5,9.5v46.3V133.7L146.7,133.7z"/>
<g>
	<g>
		<line class="st4" x1="310.8" y1="297" x2="313.8" y2="297"/>
		<path class="st5" d="M318.7,297H349c17.1,0,31-13.9,31-31v-5.3"/>
		<line class="st4" x1="380" y1="258.3" x2="380" y2="255.3"/>
	</g>
</g>
<g>
	<circle class="st0" cx="351.1" cy="198" r="10"/>
	<g>
		<path class="st3" d="M351.1,188.9c5,0,9,4.1,9,9s-4.1,9-9,9s-9-4.1-9-9S346.1,188.9,351.1,188.9 M351.1,186.9c-6.1,0-11,4.9-11,11
			c0,6.1,5,11,11,11c6.1,0,11-4.9,11-11C362.2,191.9,357.2,186.9,351.1,186.9L351.1,186.9z"/>
	</g>
</g>
<g>
	<g>
		<path class="st0" d="M314.1,254.6c-6.4,0-11.6-5.2-11.6-11.6V110.8c0-6.4,5.2-11.6,11.6-11.6h74c6.4,0,11.6,5.2,11.6,11.6V243
			c0,6.4-5.2,11.6-11.6,11.6H314.1z M351.1,159.3c-21.3,0-38.7,17.3-38.7,38.7c0,21.3,17.3,38.6,38.7,38.6s38.7-17.3,38.7-38.6
			C389.8,176.7,372.4,159.3,351.1,159.3z M351.1,111.4c-9.6,0-17.4,7.8-17.4,17.4c0,9.6,7.8,17.4,17.4,17.4s17.4-7.8,17.4-17.4
			C368.6,119.2,360.7,111.4,351.1,111.4z M351.1,135.9c-3.9,0-7-3.2-7-7c0-3.9,3.2-7,7-7s7,3.1,7,7
			C358.1,132.7,355,135.9,351.1,135.9z"/>
	</g>
	<g>
		<path class="st3" d="M388.1,100.2c5.8,0,10.6,4.7,10.6,10.6V243c0,5.8-4.7,10.6-10.6,10.6h-74c-5.8,0-10.6-4.7-10.6-10.6V110.8
			c0-5.8,4.7-10.6,10.6-10.6H388.1 M351.1,147.3c10.2,0,18.4-8.3,18.4-18.4c0-10.2-8.3-18.4-18.4-18.4s-18.4,8.3-18.4,18.4
			C332.7,139,340.9,147.3,351.1,147.3 M351.1,237.6c21.9,0,39.7-17.8,39.7-39.7c0-21.9-17.8-39.7-39.7-39.7
			c-21.9,0-39.7,17.8-39.7,39.7C311.5,219.9,329.2,237.6,351.1,237.6 M351.1,122.8c3.3,0,6,2.7,6,6c0,3.3-2.7,6-6,6
			c-3.3,0-6-2.7-6-6C345.1,125.5,347.8,122.8,351.1,122.8 M388.1,98.2h-74c-6.9,0-12.6,5.6-12.6,12.6V243c0,6.9,5.6,12.6,12.6,12.6
			h74c6.9,0,12.6-5.6,12.6-12.6V110.8C400.7,103.8,395,98.2,388.1,98.2L388.1,98.2z M351.1,145.3c-9.1,0-16.4-7.4-16.4-16.4
			c0-9.1,7.4-16.4,16.4-16.4s16.4,7.4,16.4,16.4C367.5,137.9,360.2,145.3,351.1,145.3L351.1,145.3z M351.1,235.6
			c-20.8,0-37.7-16.9-37.7-37.7c0-20.8,16.9-37.7,37.7-37.7s37.7,16.9,37.7,37.7C388.8,218.8,371.9,235.6,351.1,235.6L351.1,235.6z
			 M351.1,120.8c-4.4,0-8,3.6-8,8c0,4.4,3.6,8,8,8s8-3.6,8-8C359.1,124.4,355.5,120.8,351.1,120.8L351.1,120.8z"/>
	</g>
</g>
<g>
	<circle class="st0" cx="351.1" cy="198" r="10"/>
	<path class="st3" d="M351.1,188.9c5,0,9,4.1,9,9s-4.1,9-9,9s-9-4.1-9-9S346.1,188.9,351.1,188.9 M351.1,186.9c-6.1,0-11,4.9-11,11
		c0,6.1,5,11,11,11c6.1,0,11-4.9,11-11C362.2,191.9,357.2,186.9,351.1,186.9L351.1,186.9z"/>
</g>
<g>
	<g>
		<path class="st3" d="M351.1,188.9c5,0,9,4.1,9,9s-4.1,9-9,9s-9-4.1-9-9S346.1,188.9,351.1,188.9 M351.1,186.9c-6.1,0-11,4.9-11,11
			c0,6.1,5,11,11,11c6.1,0,11-4.9,11-11C362.2,191.9,357.2,186.9,351.1,186.9L351.1,186.9z"/>
	</g>
</g>
<g>
	<path class="st0" d="M351.1,135.9c-3.9,0-7-3.2-7-7c0-3.9,3.2-7,7-7s7,3.1,7,7C358.1,132.7,355,135.9,351.1,135.9z"/>
	<g>
		<path class="st3" d="M351.1,122.8c3.3,0,6,2.7,6,6c0,3.3-2.7,6-6,6c-3.3,0-6-2.7-6-6C345.1,125.5,347.8,122.8,351.1,122.8
			 M351.1,120.8c-4.4,0-8,3.6-8,8c0,4.4,3.6,8,8,8s8-3.6,8-8C359.1,124.4,355.5,120.8,351.1,120.8L351.1,120.8z"/>
	</g>
</g>
<g>
	<g>
		<path class="st3" d="M351.1,122.8c3.3,0,6,2.7,6,6c0,3.3-2.7,6-6,6c-3.3,0-6-2.7-6-6C345.1,125.5,347.8,122.8,351.1,122.8
			 M351.1,120.8c-4.4,0-8,3.6-8,8c0,4.4,3.6,8,8,8s8-3.6,8-8C359.1,124.4,355.5,120.8,351.1,120.8L351.1,120.8z"/>
	</g>
</g>
</svg>
