<?xml version="1.0" encoding="UTF-8"?>
<svg width="178px" height="37px" viewBox="0 0 178 37" version="1.1" xmlns="http://www.w3.org/2000/svg" xmlns:xlink="http://www.w3.org/1999/xlink">
    <!-- Generator: Sketch 42 (36781) - http://www.bohemiancoding.com/sketch -->
    <title>wired logo</title>
    <desc>Created with Sketch.</desc>
    <defs></defs>
    <g id="Page-1" stroke="none" stroke-width="1" fill="none" fill-rule="evenodd">
        <g id="wired-logo" fill="#FFFFFF">
            <path d="M97.7755874,20.1548053 C97.7003859,20.1427268 97.6322346,20.1318562 97.5629083,20.1221934 C97.4653815,20.1064913 97.3666796,20.1028678 97.3220288,19.9796671 C97.3102785,19.9470552 97.2421272,19.9265218 97.1963014,19.9180668 C97.0682239,19.8963255 96.9389715,19.8866627 96.8108941,19.8661293 C96.7638932,19.8588822 96.6922168,19.8504272 96.6769415,19.8190231 C96.6087902,19.6777048 96.4795378,19.6958225 96.3667356,19.6777048 C96.2680338,19.6607949 96.1669818,19.6656263 96.06828,19.6511321 C95.9907285,19.6402614 95.914352,19.6161044 95.8379756,19.5919474 C95.8238753,19.5883239 95.8027249,19.5605434 95.805075,19.547257 C95.8097751,19.5218922 95.8238753,19.4796174 95.8415007,19.4759939 C95.967228,19.4457977 96.0953055,19.4264721 96.2210329,19.3962758 C96.2856591,19.3805738 96.3773108,19.3684953 96.4055114,19.322597 C96.4701376,19.2150984 96.5664894,19.210267 96.6628412,19.1957728 C96.7709433,19.1800708 96.8813954,19.1776551 96.9906725,19.161953 C97.0376734,19.1547059 97.1034746,19.1414196 97.12345,19.1075998 C97.2092266,18.9638657 97.3443542,18.9517872 97.4853569,18.9324616 C97.6028591,18.9167596 97.7203613,18.8817319 97.7838125,18.7585313 C97.8167131,18.6920996 97.8813394,18.6993467 97.9389155,18.688476 C97.967116,18.6836446 97.9941415,18.6679426 98.017642,18.6594876 C98.0411424,18.5978873 98.0611178,18.5411184 98.0810932,18.4891808 C98.17862,18.4565689 98.2925972,18.4674396 98.3125726,18.3249133 C98.3172726,18.2910935 98.3830739,18.2645208 98.4218496,18.2367403 C98.4535752,18.214999 98.5146764,18.1968813 98.5158514,18.1739321 C98.5264266,18.0314059 98.6415788,18.0036254 98.7332305,17.9565192 C98.7496809,17.8900875 98.7637811,17.8309029 98.7790564,17.7705104 C98.8354575,17.7451456 98.8883335,17.7209886 98.9435595,17.6968316 C98.965885,17.605035 98.9835103,17.5144463 99.0117108,17.4274811 C99.0258111,17.3827907 99.0493115,17.3223982 99.0845622,17.3066962 C99.1750389,17.2668372 99.1832641,17.195574 99.2044145,17.1134403 C99.2349651,16.9829925 99.1938393,16.8138936 99.3700926,16.7474619 C99.3935931,16.7390069 99.4065183,16.6774066 99.4112184,16.6387554 C99.4276687,16.4962292 99.4323688,16.3524951 99.4546942,16.2111767 C99.4699695,16.1109252 99.4805447,15.9889324 99.5404709,15.9237085 C99.6450479,15.8113785 99.652098,15.6881779 99.6567981,15.5553144 C99.6838236,14.8680481 99.7096741,14.1807817 99.7331745,13.4935153 C99.7378746,13.359444 99.7707752,13.231412 99.7907506,13.1021721 C99.809551,12.9681008 99.7402247,12.8243667 99.7355246,12.6842562 C99.706149,11.9341816 99.6861736,11.1853149 99.6614982,10.4364482 C99.6567981,10.3023769 99.6497479,10.1695135 99.6379977,10.0366501 C99.6332976,9.98712822 99.6297726,9.9182808 99.598047,9.89291596 C99.441769,9.76729962 99.4558693,9.58974574 99.440594,9.41823111 C99.4300188,9.29623831 99.4229686,9.17303766 99.4065183,9.05104486 C99.3994682,9.00393873 99.3830179,8.93629916 99.3501173,8.91818142 C99.230265,8.85295754 99.23144,8.73941969 99.2126396,8.62950539 C99.1926643,8.51234399 99.2091146,8.37706484 99.0598867,8.32271161 C99.0340363,8.31425667 99.021111,8.25507204 99.0117108,8.21762871 C98.9882104,8.12824785 98.9717601,8.03886698 98.9494346,7.93982332 C98.9000837,7.91687418 98.8460327,7.89392504 98.8025569,7.8733916 C98.755556,7.75260665 98.7355806,7.61611966 98.6603792,7.53398589 C98.5781276,7.44460503 98.491176,7.37213406 98.4653255,7.24410201 C98.4606254,7.22598427 98.4183246,7.20545083 98.3912991,7.20182728 C98.3090475,7.19337233 98.2690967,7.15230545 98.2596966,7.06654814 C98.2408962,6.9046963 97.9812163,6.98441437 97.9859164,6.78632705 C97.9870914,6.77062501 97.9212901,6.74888372 97.8848644,6.73680522 C97.8002628,6.70781683 97.7144862,6.68124415 97.6251845,6.65346361 C97.599334,6.60273393 97.5723085,6.54958855 97.546458,6.50006672 C97.441881,6.47711758 97.3443542,6.45779199 97.2480024,6.43242715 C97.2115767,6.42276435 97.1587007,6.40464661 97.1493005,6.37686607 C97.1034746,6.25366542 97.0035977,6.25366542 96.9037208,6.24400263 C96.7838685,6.23313198 96.6651913,6.22105349 96.546514,6.20414359 C96.4983381,6.1968965 96.4348869,6.1896494 96.4090364,6.15703746 C96.2915342,6.00726413 96.1305561,6.01330337 95.9719281,6.01088767 C95.3021654,5.99880918 94.6324027,5.98310714 93.963815,5.98310714 C89.2566757,5.98069144 84.5495363,5.98189929 79.843572,5.98189929 C79.7530953,5.98189929 79.6637936,5.97827574 79.5733169,5.98431498 C79.5169158,5.98793853 79.4616898,6.00364058 79.3911884,6.01692692 C79.3876634,6.15341391 79.3829633,6.27540671 79.3829633,6.39739951 C79.3817883,14.5117324 79.3817883,22.6272732 79.3817883,30.7416062 C79.3817883,30.8140771 79.3806132,30.8853403 79.3841383,30.9578112 C79.3864883,31.015788 79.3958885,31.0749726 79.4041137,31.1389887 C79.5345412,31.1800555 79.6543934,31.1667692 79.7718957,31.1667692 C81.1114211,31.167977 82.4509465,31.1667692 83.7892969,31.1667692 C83.899749,31.1667692 84.0090261,31.1703927 84.1194782,31.1643535 C84.1758793,31.1619378 84.2322803,31.1438201 84.2910314,31.1329494 C84.3486075,30.9819682 84.3309822,30.8370263 84.3309822,30.6957079 C84.3321572,27.8089476 84.3321572,24.9221873 84.3298072,22.0366348 C84.3298072,21.8397554 84.3286321,21.650123 84.4696348,21.4931026 C84.4990104,21.4592828 84.5072355,21.4049295 84.5248609,21.3602391 C84.6212127,21.3554077 84.7011142,21.3481606 84.7798407,21.3481606 C87.2685379,21.3493685 89.7560602,21.3505763 92.2447574,21.352992 C92.3951602,21.352992 92.5443881,21.3578234 92.6936159,21.3686941 C92.751192,21.3735255 92.8299185,21.3807725 92.8592941,21.4182159 C92.961521,21.5498715 93.1060487,21.5402087 93.2388263,21.5655735 C93.3551535,21.5885227 93.4738307,21.5945619 93.5831078,21.6066404 C93.6148334,21.7068919 93.6324587,21.7854021 93.7370357,21.7974806 C93.7805115,21.8011042 93.8369126,21.8325083 93.858063,21.8699516 C93.9015388,21.9436304 93.9461897,22.002815 94.0284412,22.0330113 C94.0519417,22.0414662 94.0813173,22.075286 94.0813173,22.0982352 C94.0824923,22.2407614 94.1894193,22.275789 94.2916462,22.3144402 C94.3069215,22.4352252 94.3186718,22.5475552 94.3374721,22.6574695 C94.3433472,22.6949128 94.3586225,22.7468503 94.385648,22.7613445 C94.5301758,22.8386469 94.5125504,22.9872124 94.5290007,23.1128287 C94.5501512,23.2746806 94.5454511,23.4401559 94.5489761,23.6044235 C94.5619014,24.354498 94.5724766,25.1033647 94.5889269,25.8534392 C94.5912769,25.9428201 94.592452,26.0515266 94.6394528,26.1167504 C94.7181793,26.2266647 94.7252295,26.3414104 94.7299296,26.4646111 C94.7487299,27.1216812 94.7675303,27.7787513 94.7875057,28.4358215 C94.7969058,28.78489 94.806306,29.1339585 94.8192313,29.483027 C94.8227563,29.5627451 94.806306,29.6545416 94.8768074,29.7137262 C94.9672841,29.7886129 94.9696341,29.8912801 94.9755092,29.9927395 C94.9931346,30.2596742 95.0037098,30.526609 95.01781,30.7923358 C95.0236851,30.903458 95.014285,31.0169959 95.0636359,31.1426122 C95.1717379,31.1498593 95.27984,31.1655613 95.386767,31.1655613 C96.8167692,31.167977 98.2455963,31.1667692 99.6744234,31.1655613 C99.7413997,31.1655613 99.808376,31.1534828 99.8542018,31.1486514 C99.8788773,31.1184552 99.8906275,31.1100003 99.8906275,31.1027532 C99.8847524,30.6208212 99.8788773,30.1376814 99.8683021,29.6557495 C99.8683021,29.6074355 99.8553768,29.547043 99.8248263,29.5132232 C99.7272994,29.4033089 99.7249494,29.2692376 99.7202493,29.1363742 C99.7002739,28.5107081 99.6814735,27.8850421 99.6697233,27.2581682 C99.654448,26.5093015 99.6497479,25.759227 99.6356477,25.0091524 C99.6344726,24.9089009 99.6356477,24.7893238 99.5851217,24.7144372 C99.5099203,24.603315 99.496995,24.4897772 99.492295,24.3665765 C99.4687945,23.8435777 99.4499941,23.3205788 99.4241437,22.79758 C99.4182685,22.6792108 99.4323688,22.557218 99.3113415,22.4666292 C99.2584655,22.4279781 99.2467153,22.3204795 99.232615,22.2419692 C99.2138147,22.1308471 99.2149897,22.0161014 99.1973644,21.9049792 C99.1844391,21.8252612 99.1538885,21.7491666 99.1303881,21.6706564 C98.9799852,21.6114718 98.9987856,21.4604906 98.9576598,21.3397057 C98.9376844,21.2829367 98.916534,21.1983873 98.8754082,21.1814774 C98.7355806,21.1247085 98.7543809,20.9797665 98.70268,20.8867621 C98.6357037,20.863813 98.5816527,20.8456952 98.5334768,20.8287853 C98.5135014,20.7563144 98.4970511,20.6983376 98.4841258,20.6476079 C98.4065743,20.6234509 98.3419481,20.6041253 98.2925972,20.5884233 C98.2608716,20.5147445 98.2373711,20.4591834 98.2162207,20.4120773 C98.0869683,20.3806732 97.9718161,20.3516848 97.8648891,20.3251121 C97.8308134,20.2610961 97.8037879,20.2079507 97.7755874,20.1548053 L97.7755874,20.1548053 Z M107.154615,0.210794379 C107.14874,0.354528469 107.13699,0.49705471 107.13699,0.640788801 L107.13699,34.2673189 C107.13699,35.0475896 107.135815,35.8278604 107.13699,36.6081312 C107.138165,36.7204612 107.14874,36.8327912 107.154615,36.9451212 L71.4785883,36.9451212 C71.4750632,36.8327912 71.4691881,36.7192533 71.4691881,36.6069233 L71.4691881,0.548992239 C71.4691881,0.436662235 71.4750632,0.324332232 71.4785883,0.210794379 L107.154615,0.210794379 Z" id="Fill-1"></path>
            <path d="M15.2709265,6.97438922 C15.2638763,7.04565234 15.2591762,7.08551137 15.2568262,7.12657826 C15.2439009,7.32104203 15.2356758,7.51671364 15.2180505,7.70996956 C15.2133504,7.76794634 15.1992501,7.84887226 15.1604744,7.87544495 C15.0312219,7.96603366 15.033572,8.1013128 15.0206467,8.2305527 C15.0041964,8.39361238 15.0006713,8.55787991 14.9936212,8.72214744 C14.9912712,8.79703411 14.9759959,8.85984229 14.9184198,8.91419551 C14.823243,9.00236853 14.7962174,9.12315348 14.7879923,9.24876983 C14.7785921,9.40216671 14.775067,9.5555636 14.7621418,9.70896048 C14.7492166,9.85752597 14.7809422,10.0242092 14.6187891,10.1172136 C14.5964637,10.2271279 14.563563,10.3358344 14.5518128,10.4457487 C14.5330125,10.6293418 14.5294874,10.8153506 14.5130371,10.9989437 C14.5059869,11.068999 14.5001118,11.1680427 14.457811,11.1994468 C14.3262085,11.2924512 14.3379588,11.4277303 14.3238585,11.5557624 C14.3085832,11.6886258 14.3121083,11.8226971 14.2956579,11.9555606 C14.2815577,12.072722 14.2897828,12.1947148 14.1699306,12.2840956 C14.1205796,12.3203311 14.1111794,12.4314533 14.1041293,12.5111713 C14.086504,12.6947644 14.088854,12.8807733 14.0677036,13.0643664 C14.0524283,13.2020612 14.0630035,13.3542503 13.9196508,13.4472547 C13.8879252,13.4677881 13.8797001,13.5378434 13.875,13.5861574 C13.8585497,13.7914918 13.8444494,13.9956184 13.8362242,14.2009528 C13.8303491,14.327777 13.8127238,14.455809 13.7257721,14.543982 C13.6446956,14.6261158 13.6317703,14.7167045 13.6270703,14.8205796 C13.6188451,15.0162512 13.6059199,15.210715 13.5965197,15.4051787 C13.5918196,15.4788575 13.5788943,15.5464971 13.5177932,15.5972268 C13.4167413,15.6829841 13.3979409,15.8049769 13.3920658,15.9305933 C13.3826656,16.0936529 13.3767905,16.2579205 13.3685654,16.422188 C13.3626902,16.5369337 13.35094,16.6540951 13.2616383,16.7326053 C13.1735117,16.8099077 13.1652865,16.9065357 13.1594114,17.0092029 C13.1476612,17.2048745 13.141786,17.3993382 13.1253357,17.593802 C13.1206356,17.6505709 13.1041853,17.7218341 13.0665846,17.7592774 C12.9502574,17.8764388 12.9208819,18.0201729 12.9150067,18.1784012 C12.9079566,18.3728649 12.8950314,18.5673287 12.8797561,18.7617925 C12.876231,18.8113143 12.8691809,18.8801617 12.8374553,18.9031109 C12.6847024,19.0166487 12.6905775,19.183332 12.6800023,19.3451838 C12.6682521,19.5191141 12.664727,19.6942523 12.6482767,19.8681826 C12.6412265,19.93703 12.6318264,20.0348659 12.5883505,20.0662699 C12.455573,20.1580665 12.4637982,20.2945535 12.4496979,20.4225855 C12.4308976,20.5856452 12.4308976,20.7499128 12.4156223,20.9129724 C12.4097472,20.9721571 12.401522,21.0542908 12.3639213,21.0808635 C12.244069,21.165413 12.2475941,21.2910293 12.2346688,21.4093986 C12.2123434,21.6135251 12.2076433,21.8188596 12.1853179,22.0229861 C12.1747427,22.1208219 12.1723926,22.224697 12.0725158,22.2959601 C12.03374,22.3237407 12.0161147,22.3998352 12.0102396,22.4566041 C11.9902642,22.6607307 11.9773389,22.8660651 11.9620637,23.0701916 C11.9561885,23.1523254 11.9491384,23.2332513 11.8892123,23.2984752 C11.7881604,23.4108052 11.7634849,23.5497079 11.7611348,23.6982734 C11.7576098,23.8625409 11.7505596,24.0268084 11.7317593,24.1898681 C11.7223591,24.2768333 11.7258842,24.3819162 11.6365825,24.4374773 C11.557856,24.488207 11.5425807,24.5643015 11.5378806,24.6488509 C11.5273054,24.8433147 11.5190802,25.0377785 11.503805,25.2322422 C11.4979298,25.3131682 11.4873546,25.3965098 11.4638542,25.4726043 C11.4297786,25.5885578 11.3075762,25.6706916 11.1853739,25.6561974 C11.1465982,25.651366 11.0913721,25.6042599 11.081972,25.5656087 C11.0596465,25.4774357 11.0572965,25.3832234 11.0537714,25.2914269 C11.0420212,25.065559 11.0373211,24.8396912 11.0232208,24.6150312 C11.0196958,24.5558465 11.0102956,24.4809599 10.9750449,24.4447244 C10.8399174,24.3094452 10.8246421,24.1391385 10.8164169,23.9640003 C10.8058417,23.7067283 10.7976166,23.4506642 10.7835163,23.1946001 C10.7799912,23.1354155 10.7811662,23.0556974 10.7459156,23.0206698 C10.5849375,22.858818 10.5884626,22.6522757 10.5778874,22.4481492 C10.5661372,22.2126185 10.559087,21.97588 10.5438117,21.7403493 C10.5402867,21.6835804 10.5250114,21.6099016 10.4885857,21.574874 C10.3781336,21.4734146 10.3710835,21.3393433 10.3616833,21.2088956 C10.3428829,20.9637021 10.3381828,20.716093 10.3205575,20.4708995 C10.3111573,20.3319968 10.3358328,20.1798078 10.191305,20.0831798 C10.1654546,20.0662699 10.1595794,20.009501 10.1537043,19.969642 C10.1419541,19.8790533 10.1325539,19.7872567 10.1266788,19.6942523 C10.1102285,19.4490588 10.0996533,19.2026575 10.0796779,18.9574641 C10.0714528,18.8584204 10.0714528,18.7545454 9.97627597,18.6808666 C9.93750023,18.6506703 9.92104992,18.5745758 9.91517481,18.5178069 C9.8987245,18.3752806 9.89402441,18.2315466 9.88462423,18.0878125 C9.87287401,17.9042193 9.86699889,17.7182105 9.84584849,17.5358252 C9.83762334,17.457315 9.82117302,17.3570635 9.76947204,17.3111652 C9.68134537,17.2302393 9.67429524,17.1360271 9.66959515,17.0345677 C9.6566699,16.767633 9.64491968,16.5006982 9.63199443,16.2337635 C9.6249443,16.0888215 9.60731897,15.9450874 9.49569185,15.8387967 C9.43811575,15.7820278 9.43929078,15.7119725 9.43576571,15.6407094 C9.42284046,15.362904 9.4087402,15.0863065 9.40051504,14.8097089 C9.39698997,14.6828847 9.38758979,14.5463977 9.30768828,14.4594326 C9.19606116,14.3398555 9.1984112,14.2021606 9.19018605,14.0620501 C9.1772608,13.8265194 9.17021067,13.5897809 9.16081049,13.3542503 C9.15846045,13.2817793 9.15728542,13.2093083 9.09735929,13.156163 C8.97985706,13.0534957 8.96340674,12.9121774 8.95753163,12.7660276 C8.94695643,12.4990928 8.93755625,12.2321581 8.92110594,11.9652233 C8.91758087,11.8963759 8.91288079,11.8069951 8.871755,11.7647203 C8.73662744,11.6270255 8.72487722,11.4567187 8.71782708,11.2815805 C8.70725188,11.0351792 8.70020175,10.7887779 8.68610148,10.5435845 C8.68257641,10.4747371 8.67787632,10.3829405 8.63675054,10.3418736 C8.50397302,10.2150494 8.49574787,10.0544054 8.48634769,9.89134576 C8.47342244,9.63528167 8.46637231,9.37800972 8.45227204,9.12194563 C8.44639693,9.01082347 8.44874698,8.89728562 8.3394699,8.8211911 C8.30539426,8.79703411 8.29246901,8.73181024 8.28541888,8.68349626 C8.26661852,8.54097002 8.25369327,8.39844378 8.24311807,8.25470969 C8.22901781,8.05058312 8.22196767,7.84524871 8.20904243,7.63991429 C8.20434234,7.56985902 8.21021745,7.49014096 8.14089113,7.44545052 C8.06216464,7.39472084 8.05158944,7.31500278 8.04571433,7.23166116 C8.02691397,6.95627148 8.01046366,6.67967394 7.98813823,6.40307641 C7.97991308,6.29195425 7.96111272,6.1832478 7.9493625,6.09507478 C7.79778462,5.96945844 7.64503172,5.98153693 7.49580389,5.98153693 L3.26924867,5.98153693 C3.19992236,5.98153693 3.12942102,5.97912123 3.0600947,5.98636833 C3.00486865,5.99361543 2.9496426,6.01414887 2.89911665,6.02864306 L2.89911665,6.35234673 C2.89794162,6.45984533 2.92731718,6.56130469 2.99899354,6.63498351 C3.08594519,6.72436437 3.09887044,6.83065513 3.10474555,6.94419298 C3.11532075,7.13865675 3.12354591,7.33432837 3.1388212,7.52879214 C3.14234626,7.57589827 3.15409649,7.63991429 3.18582209,7.66407128 C3.31507454,7.76311494 3.32799979,7.90564118 3.33975001,8.04937527 C3.35620032,8.26316463 3.36325045,8.47936969 3.37852574,8.69436691 C3.38205081,8.74388874 3.38322583,8.81273616 3.41260139,8.838101 C3.5818046,8.98304294 3.56535429,9.1847538 3.58297963,9.37559402 C3.59825492,9.54952435 3.602955,9.72345468 3.61823029,9.89738501 C3.62293038,9.94690684 3.63115554,10.01817 3.66288114,10.0374955 C3.80035875,10.1232529 3.78508346,10.2645713 3.79918373,10.3913955 C3.82033413,10.595522 3.82503422,10.8008564 3.8450096,11.004983 C3.8555848,11.1052345 3.86028489,11.2066939 3.96133681,11.2755413 C3.99893752,11.302114 4.01186277,11.3830399 4.01773788,11.4410167 C4.03653823,11.6560139 4.04711343,11.8710111 4.06473877,12.0860083 C4.07531397,12.2188717 4.09058926,12.3481116 4.19869131,12.449571 C4.235117,12.4845986 4.25039229,12.5582775 4.25509238,12.6150464 C4.27154269,12.8191729 4.27976785,13.0245074 4.29151807,13.2298418 C4.30091825,13.3856544 4.32324368,13.533012 4.44074591,13.6513812 C4.4771716,13.6888246 4.4877468,13.7612956 4.49244689,13.8192723 C4.50772218,14.0246067 4.51594733,14.2299412 4.52652253,14.4340677 C4.5300476,14.5065387 4.5300476,14.5814254 4.58879872,14.6333629 C4.70747597,14.7360301 4.72745135,14.8761406 4.73332646,15.0222904 C4.74272664,15.2276248 4.75447686,15.4329593 4.76505206,15.6370858 C4.76857713,15.7095568 4.77210219,15.7796121 4.83320335,15.8327574 C4.94248043,15.9269697 4.96128079,16.0586253 4.96833092,16.1939044 C4.98008114,16.4101095 4.98948132,16.6251067 5.00475661,16.8401039 C5.00828168,16.8896258 5.01298177,16.9608889 5.04353235,16.9814223 C5.22448578,17.1058308 5.2045104,17.2978789 5.2150856,17.4790563 C5.2256608,17.6529866 5.23036089,17.8281248 5.24446116,18.0020551 C5.24916125,18.0612398 5.2573864,18.1433735 5.29498712,18.1711541 C5.44303993,18.2774448 5.43363975,18.4332574 5.44538997,18.5854465 C5.45831522,18.7690396 5.46066526,18.9538406 5.47476553,19.1386415 C5.48181566,19.2183596 5.47711558,19.3125719 5.54996696,19.3645094 C5.65454394,19.4418117 5.65924403,19.5565575 5.66981923,19.6664718 C5.68744457,19.8597277 5.69566972,20.0553993 5.70624492,20.2498631 C5.71329506,20.3646088 5.72269524,20.4781466 5.81199693,20.5602804 C5.8789732,20.6218807 5.88602334,20.7015988 5.89189845,20.7837325 C5.90717374,20.989067 5.92244903,21.1931935 5.94124938,21.3973201 C5.9471245,21.4577126 5.94829952,21.542262 5.98472521,21.5712504 C6.13512806,21.6908275 6.11632771,21.8599264 6.12925295,22.0205704 C6.14452824,22.1945008 6.15040335,22.3684311 6.16802869,22.5423614 C6.17742887,22.6426129 6.18330398,22.7428644 6.28670594,22.810504 C6.32548168,22.834661 6.33958194,22.9167948 6.34545706,22.9747715 C6.36190737,23.1378312 6.36660746,23.3020987 6.37835768,23.4651584 C6.38658284,23.5774884 6.39363297,23.6910263 6.41360835,23.8009406 C6.42300853,23.8589174 6.44298391,23.9325962 6.48293467,23.9627924 C6.58163654,24.0340555 6.58633663,24.1330992 6.59338676,24.2345586 C6.60631201,24.4290223 6.60748703,24.6246939 6.62276232,24.8191577 C6.6321625,24.9508133 6.64038765,25.0824689 6.75788988,25.1790969 C6.79666562,25.210501 6.81429095,25.2853876 6.81899104,25.3421566 C6.83661638,25.5571538 6.84601656,25.772151 6.85659176,25.988356 C6.86364189,26.1224273 6.87656714,26.2552908 6.98701923,26.3507109 C7.05634555,26.4098955 7.05869559,26.4932371 7.06339568,26.5753709 C7.07397088,26.7710425 7.08689613,26.9655063 7.09159622,27.15997 C7.09512128,27.2988727 7.11509666,27.4281126 7.22202369,27.5235327 C7.28899996,27.5827174 7.30192521,27.6600197 7.30427525,27.7445692 C7.31015037,27.9184995 7.3172005,28.0936377 7.32895072,28.267568 C7.33717588,28.3871451 7.33482583,28.5030987 7.43940282,28.604558 C7.52517945,28.6866918 7.53692967,28.8231788 7.54162976,28.950003 C7.54867989,29.1541296 7.56395518,29.359464 7.57453038,29.5647984 C7.57805545,29.6384772 7.59450576,29.6988697 7.65678194,29.7508072 C7.69790773,29.7858349 7.72375822,29.8510587 7.73550844,29.9078277 C7.75900888,30.0274048 7.77428417,30.1506054 7.78368435,30.2725982 C7.79308453,30.394591 7.80013467,30.5165838 7.84008542,30.6264981 C7.9705129,30.7038005 7.96933788,30.7050083 8.00576357,30.7931813 C8.02456393,30.8378718 8.05041442,30.9127584 8.07626491,30.9139663 C8.22079265,30.9224212 8.21726758,31.068571 8.28306883,31.1386263 C8.35239515,31.1470812 8.41232128,31.1543283 8.4710724,31.1603676 C8.64967579,31.1784853 8.8294542,31.1857324 8.96810683,31.3330901 C8.99748239,31.3632863 9.05975857,31.3681177 9.10793449,31.3717413 C9.18666098,31.3801962 9.26773752,31.3789883 9.34763904,31.3789883 L12.7646039,31.3789883 C12.8445054,31.3789883 12.9255819,31.3826119 13.0031334,31.3717413 C13.0595345,31.3632863 13.1229857,31.3463764 13.1652865,31.3101409 C13.2886638,31.2074737 13.4284915,31.1712382 13.5824194,31.1639911 C13.6611459,31.1603676 13.7386974,31.1446655 13.8315241,31.1313792 C13.8514995,31.0299198 13.878525,30.9308762 14.0054274,30.9187977 C14.032453,30.916382 14.0771038,30.8644445 14.0771038,30.8354561 C14.0782788,30.7062162 14.1758057,30.6723964 14.2686324,30.6204589 C14.2897828,30.4694777 14.3085832,30.3172886 14.3344337,30.1663075 C14.3438339,30.1071228 14.349709,30.0201577 14.3873097,29.9984164 C14.5200872,29.9223219 14.507162,29.7942898 14.5189122,29.6759206 C14.5365375,29.4923274 14.5388876,29.3075265 14.5541629,29.1227255 C14.563563,29.0116033 14.5694381,28.8896105 14.6610899,28.8123082 C14.7433414,28.7434607 14.7456915,28.6564956 14.7515666,28.564699 C14.7621418,28.3811059 14.7691919,28.1950971 14.7868173,28.0115039 C14.7926924,27.9438644 14.8044426,27.85086 14.8479184,27.8146245 C14.9877461,27.7022945 14.9877461,27.5525211 14.9947962,27.3991242 C15.0018464,27.2348567 15.0030214,27.0693813 15.0229968,26.9063217 C15.035922,26.7891603 15.038272,26.6623361 15.1557743,26.5789944 C15.19455,26.5512139 15.2121753,26.4739115 15.2168754,26.4159348 C15.2345008,26.2118082 15.2415509,26.0064738 15.2544761,25.8023472 C15.2638763,25.6574053 15.2873768,25.5209183 15.4013539,25.4122118 C15.4389546,25.3771842 15.4518799,25.3035054 15.45658,25.2467364 C15.4730303,25.041402 15.4789054,24.8360676 15.4953557,24.631941 C15.5000558,24.5727564 15.5059309,24.4930384 15.5423566,24.4616343 C15.6927595,24.3336022 15.6939345,24.1596719 15.7033347,23.9857416 C15.7139099,23.8009406 15.72331,23.6173475 15.7374103,23.4325465 C15.7421104,23.3842325 15.7526856,23.3141772 15.7844112,23.2948517 C15.932464,23.2030551 15.9171887,23.0496582 15.932464,22.9119634 C15.9524394,22.7392409 15.9465643,22.5628949 15.9641896,22.3901724 C15.9724148,22.3007915 15.98534,22.1884615 16.039391,22.1341083 C16.1380929,22.0350646 16.1521932,21.9203189 16.1639434,21.799534 C16.1815687,21.6159408 16.1874439,21.4311399 16.2050692,21.2475467 C16.2085943,21.1992328 16.2191695,21.1315932 16.2508951,21.1098519 C16.3719224,21.028926 16.3695723,20.9021018 16.3824976,20.7825247 C16.4012979,20.5880609 16.404823,20.3923893 16.4259734,20.1991334 C16.4377236,20.0904269 16.4400736,19.9756812 16.5434756,19.8947553 C16.5822513,19.8645591 16.5998767,19.7896724 16.6057518,19.7329035 C16.6257272,19.5287769 16.6327773,19.3234425 16.6527527,19.1193159 C16.6586278,19.0504685 16.668028,18.9598798 16.7103288,18.9212286 C16.8407563,18.8040672 16.8478064,18.6555017 16.8583816,18.500897 C16.8701318,18.3064332 16.8865821,18.1119695 16.9030324,17.9187135 C16.9089075,17.8462426 16.9124326,17.7689402 16.9817589,17.7278733 C17.0745857,17.6723122 17.0792858,17.5781 17.0851609,17.4863034 C17.0992612,17.2918396 17.1051363,17.0973759 17.1192365,16.9029121 C17.1274617,16.7809193 17.1309868,16.6480559 17.2285136,16.5635064 C17.299015,16.5019061 17.3178153,16.4342665 17.3213404,16.349717 C17.3319156,16.1552533 17.3436658,15.9607895 17.353066,15.7651179 C17.3577661,15.6829841 17.3636412,15.6044739 17.4294424,15.5404579 C17.5293193,15.4438299 17.5563448,15.3157979 17.5610449,15.1768952 C17.5692701,14.9715608 17.5798453,14.7662263 17.5974706,14.5620998 C17.6021707,14.5053308 17.616271,14.4268206 17.6550467,14.3978322 C17.777249,14.3048278 17.7842992,14.1719644 17.7960494,14.0403088 C17.8113247,13.8772491 17.8136747,13.7129816 17.8218999,13.548714 C17.82895,13.40498 17.82895,13.2624537 17.9617275,13.1622022 C17.9946282,13.1380452 18.0052034,13.0728213 18.0134285,13.0232995 C18.0298788,12.9327108 18.0287038,12.8384985 18.0498542,12.7503255 C18.0674795,12.6754389 18.0592544,12.5824344 18.1673564,12.5292891 C18.2331577,12.6295406 18.2742835,12.7358313 18.2778085,12.8626555 C18.2813336,12.995519 18.2930838,13.1283824 18.3060091,13.2612459 C18.3107092,13.3107677 18.3142342,13.3784073 18.3447848,13.4025643 C18.4822624,13.5124786 18.4810874,13.6670833 18.4928376,13.8204802 C18.5092879,14.0137361 18.5210381,14.2094077 18.5445386,14.4026636 C18.5527637,14.4690954 18.5750892,14.5536448 18.620915,14.5910882 C18.6949414,14.6526885 18.7066917,14.7239516 18.7125668,14.8060854 C18.7290171,15.0102119 18.7442924,15.2155464 18.7607427,15.4196729 C18.7666178,15.4921439 18.7736679,15.5658227 18.8382942,15.611721 C18.932296,15.6781527 18.9440462,15.7820278 18.9522713,15.8834871 C18.9675466,16.0682881 18.9651966,16.2542969 18.988697,16.4366822 C19.0074974,16.5719613 18.987522,16.7265661 19.1367498,16.8195705 C19.1731755,16.8413118 19.1790506,16.9294848 19.1837507,16.9886694 C19.200201,17.1831332 19.2060761,17.377597 19.2213514,17.5720607 C19.2319266,17.714587 19.2472019,17.8546975 19.3600041,17.9646118 C19.3976048,18.0008473 19.4152301,18.0709026 19.4211052,18.1276715 C19.4387306,18.3317981 19.4422556,18.5383403 19.461056,18.7424669 C19.4669311,18.8101065 19.4845564,18.8946559 19.5280323,18.9357228 C19.6361343,19.0371822 19.6561097,19.1627985 19.6631598,19.2980777 C19.673735,19.4816708 19.6772601,19.6676796 19.6901853,19.8512727 C19.6984105,19.9623949 19.7019356,20.0771406 19.8182628,20.1447802 C19.8864141,20.1846392 19.8864141,20.2655651 19.8911141,20.3368282 C19.9028644,20.531292 19.9181397,20.7269636 19.9228398,20.9214274 C19.9263648,21.0494594 19.9498653,21.1690365 20.0344669,21.2632488 C20.1084933,21.3465904 20.1284687,21.4395948 20.1319937,21.5446777 C20.1378688,21.6980746 20.144919,21.8526793 20.1566692,22.0060762 C20.1660694,22.1256533 20.1543191,22.2536854 20.2812216,22.3309878 C20.3082471,22.3466898 20.3199973,22.401043 20.3258724,22.4396942 C20.3458478,22.5604792 20.3622981,22.682472 20.3740483,22.8044648 C20.3893236,22.9675244 20.3928487,23.131792 20.410474,23.2948517 C20.4163491,23.3528284 20.4327994,23.4337543 20.4715752,23.4579113 C20.567927,23.517096 20.5714521,23.6064768 20.5808522,23.6970655 C20.5984776,23.8915293 20.6114028,24.0859931 20.6313782,24.2804568 C20.6372533,24.3384336 20.6431284,24.4181517 20.6795541,24.4507636 C20.8088066,24.5655093 20.8158567,24.7152827 20.8276069,24.8698874 C20.8428822,25.0643512 20.8569825,25.2588149 20.8781329,25.4520709 C20.884008,25.5112555 20.8910581,25.5970128 20.9286588,25.6211698 C21.0543862,25.7008879 21.0461611,25.8265042 21.0579113,25.9460813 C21.0743616,26.1296744 21.0778867,26.3144754 21.096687,26.4980685 C21.1072622,26.6079828 21.1084373,26.7335992 21.202439,26.8084858 C21.2776405,26.8676705 21.2823406,26.9425571 21.2882157,27.0246909 C21.3011409,27.2191547 21.3093661,27.4136184 21.3293414,27.6080822 C21.3363916,27.6757218 21.3528419,27.769934 21.3974927,27.8013381 C21.5079448,27.8786405 21.5138199,27.9885548 21.5220451,28.0984691 C21.5361454,28.2832701 21.5384954,28.4680711 21.5502456,28.652872 C21.5596458,28.7845276 21.5631709,28.9210146 21.6888983,29.0067719 C21.7452993,29.0454231 21.7488244,29.1094391 21.7523495,29.1722473 C21.7640997,29.3763739 21.7758499,29.5817083 21.7887752,29.7870427 C21.7923002,29.857098 21.7864251,29.9319846 21.8487013,29.98513 C21.9650285,30.0853815 21.993229,30.2230764 22.0014542,30.370434 C22.0061543,30.4622306 22.0202546,30.5528193 22.0296547,30.643408 C22.1107313,30.7025926 22.2235334,30.7207104 22.2329336,30.8511581 C22.2352836,30.8837701 22.2728844,30.9357076 22.3010849,30.9417468 C22.4162371,30.9659038 22.4221122,31.1048065 22.5043637,31.1422498 C22.5360893,31.1470812 22.5560647,31.1519126 22.5760401,31.1531205 C22.7440683,31.1664068 22.9097464,31.1700304 23.046049,31.3077252 C23.0954,31.3572471 23.1941018,31.3620785 23.2716533,31.3717413 C23.3703552,31.3838197 23.4714071,31.3801962 23.571284,31.3801962 C24.6393793,31.381404 25.7086496,31.381404 26.7779199,31.381404 C26.9083473,31.381404 27.0387748,31.3801962 27.1680273,31.3705334 C27.2244283,31.3669099 27.2972797,31.3560392 27.3313554,31.317388 C27.4453325,31.1905638 27.5922103,31.1796932 27.7414381,31.1639911 C27.838965,31.1543283 27.9364918,31.1362106 28.0257935,31.1241321 C28.0551691,31.0540768 28.0657443,30.9840216 28.1056951,30.9477861 C28.152696,30.9055113 28.2255473,30.8934328 28.2737232,30.8728994 C28.3019238,30.731581 28.3254242,30.6120039 28.3465746,30.5093367 C28.4135509,30.4646463 28.4640769,30.4320343 28.5122528,30.3994224 C28.5193029,30.3511084 28.526353,30.3100415 28.5287031,30.2701825 C28.5404533,30.0757187 28.5486785,29.881255 28.5651288,29.6867912 C28.5698289,29.6276066 28.578054,29.5478885 28.6156547,29.5176923 C28.7554824,29.407778 28.7531323,29.2531732 28.7648826,29.102192 C28.7789828,28.9173911 28.7813329,28.7325901 28.7942581,28.548997 C28.8024833,28.4475376 28.8071834,28.3448704 28.9082353,28.2784387 C28.9423109,28.2566974 28.9587612,28.1914735 28.9658114,28.1443674 C28.9846117,28.0332452 28.9951869,27.9209152 29.0045871,27.8085852 C29.0186874,27.6346549 29.0269125,27.4607246 29.0421878,27.2867942 C29.0468879,27.2372724 29.051588,27.1660093 29.0821386,27.144268 C29.2325414,27.0391851 29.210216,26.8773333 29.2243163,26.7287678 C29.2431166,26.5451747 29.2466417,26.3603737 29.2677921,26.1767806 C29.2760173,26.0982703 29.2912926,25.9931874 29.3418185,25.9521205 C29.4381703,25.8748182 29.4405204,25.7793981 29.4475705,25.6791466 C29.4616708,25.4738121 29.469896,25.2684777 29.4910464,25.0643512 C29.5004465,24.9749703 29.5110217,24.8626403 29.5650728,24.8046635 C29.6861001,24.6778393 29.682575,24.5292738 29.6919752,24.3770848 C29.7013753,24.2236879 29.7084255,24.070291 29.7166506,23.9168941 C29.7225257,23.8335525 29.7401511,23.7562502 29.7989022,23.6910263 C29.892904,23.5871512 29.9152294,23.4591192 29.9199295,23.3214243 C29.9258046,23.1160899 29.9363798,22.9107555 29.9528301,22.7066289 C29.9575302,22.6486522 29.9716305,22.5725577 30.0092312,22.5399457 C30.1314335,22.4348628 30.1478838,22.297168 30.1537589,22.152226 C30.1631591,21.9468916 30.1725593,21.7415572 30.1878346,21.5374306 C30.1913596,21.478246 30.2007598,21.3985279 30.2383605,21.3683317 C30.3758381,21.2584174 30.3793632,21.1050205 30.3899384,20.9528315 C30.4028637,20.7474971 30.4087388,20.5421626 30.4240141,20.3380361 C30.4287141,20.2788515 30.4357643,20.194302 30.47219,20.1677293 C30.631993,20.0566071 30.6237679,19.8911318 30.633168,19.7280721 C30.6425682,19.544479 30.6472683,19.3584701 30.6625436,19.174877 C30.6684187,19.1072374 30.6801689,19.0130252 30.7248198,18.9792054 C30.8575973,18.8753303 30.8505472,18.7291805 30.8634724,18.5902779 C30.8799227,18.4163475 30.8799227,18.2412093 30.8904979,18.067279 C30.897548,17.9440784 30.9057732,17.8232934 31.0174003,17.7375361 C31.0503009,17.7121713 31.0644012,17.6481552 31.0714513,17.5998413 C31.0879017,17.4790563 31.0973018,17.3558557 31.106702,17.232655 C31.1172772,17.0901288 31.1172772,16.9451868 31.1372526,16.8026606 C31.1478278,16.7253582 31.1701532,16.6347695 31.2195042,16.5816241 C31.2817803,16.5164003 31.3041058,16.4487607 31.3099809,16.3654191 C31.3252562,16.1612925 31.3405315,15.9559581 31.3605068,15.7518315 C31.3663819,15.6926469 31.368732,15.6105131 31.4051577,15.5803169 C31.5414603,15.4655712 31.5355852,15.3121743 31.5461604,15.1587774 C31.5602606,14.9546509 31.5731859,14.7493164 31.5931612,14.5451899 C31.5990364,14.4872131 31.6107866,14.4111186 31.6483873,14.3772988 C31.7682396,14.2685923 31.7752897,14.1296897 31.7823398,13.9847477 C31.79174,13.7902839 31.7987902,13.5946123 31.8187655,13.4013564 C31.8269907,13.324054 31.8481411,13.2238025 31.8998421,13.1803199 C31.9914938,13.1042254 32.0055941,13.0100132 32.0114692,12.9085538 C32.0267445,12.6838938 32.0326196,12.4580259 32.0455448,12.2321581 C32.052595,12.1306987 32.0608201,12.0316551 32.1630471,11.9652233 C32.2041728,11.9386507 32.2253232,11.863764 32.2370735,11.8069951 C32.2523488,11.727277 32.2511737,11.6439354 32.2558738,11.5618016 C32.266449,11.3782085 32.2699741,11.1921997 32.2875994,11.0086065 C32.2934745,10.9421748 32.3146249,10.8503783 32.3604508,10.8189742 C32.4709029,10.7428797 32.4838282,10.6390046 32.4897033,10.5254667 C32.5002785,10.3201323 32.5061536,10.1147979 32.5190788,9.91067135 C32.5249539,9.80800414 32.526129,9.69325844 32.6119056,9.62682672 C32.7153075,9.5459008 32.7200076,9.4359865 32.7270578,9.32486434 C32.739983,9.10986713 32.7423331,8.89366207 32.7599584,8.67987271 C32.7658335,8.60015464 32.7775837,8.49507174 32.8269347,8.45279701 C32.9561871,8.34409055 32.9526621,8.20156431 32.9644123,8.06145377 C32.9796876,7.87786064 32.9785125,7.69305967 32.9949629,7.5082587 C33.003188,7.42974848 33.0137632,7.32828912 33.0642892,7.27997514 C33.1817914,7.16643729 33.1817914,7.0251189 33.1970667,6.88500836 C33.2088169,6.77267835 33.2064669,6.6591405 33.212342,6.5468105 C33.2276173,6.2955778 33.2276173,6.2955778 33.3498196,6.08903554 C33.2417175,5.97428983 33.1007149,5.98153693 32.9620622,5.98153693 C31.6425122,5.98153693 30.3241372,5.98153693 29.0057621,5.98274478 C28.9270356,5.98274478 28.8494842,5.99603112 28.7801579,6.00207037 C28.7519573,6.04072156 28.7378571,6.06850209 28.7155316,6.08903554 C28.579229,6.21585973 28.5545536,6.38254296 28.5522035,6.56009684 C28.5486785,6.7859647 28.5345782,7.01183255 28.526353,7.23770041 C28.522828,7.31983418 28.521653,7.40317579 28.4570267,7.46598397 C28.3383495,7.58193752 28.3207241,7.73171085 28.3171991,7.88993914 C28.3101489,8.14600323 28.2972237,8.40327518 28.2866485,8.65933927 C28.2831234,8.74147304 28.2760733,8.82239895 28.2126221,8.88641498 C28.1139202,8.98666648 28.0892447,9.11590638 28.0857197,9.25239337 C28.0774945,9.49879467 28.0692694,9.74519597 28.0563441,9.99159727 C28.049294,10.1232529 28.0445939,10.2488692 27.9353168,10.3575757 C27.8800908,10.4119289 27.8683406,10.5242589 27.8554153,10.6136398 C27.838965,10.7247619 27.8436651,10.8395076 27.838965,10.9518376 C27.8295648,11.1475092 27.8236897,11.341973 27.8095894,11.5364368 C27.8048893,11.5956214 27.7978392,11.6777552 27.7602385,11.7055357 C27.6251109,11.8069951 27.629811,11.9555606 27.6192358,12.0944632 C27.5992604,12.3396567 27.5980854,12.586058 27.5839852,12.8324593 C27.576935,12.962907 27.5875102,13.099394 27.4606078,13.1936063 C27.4277072,13.2165554 27.418307,13.284195 27.4124319,13.3337168 C27.3948066,13.4762431 27.3818813,13.6187693 27.3724811,13.7625034 C27.3607309,13.9460965 27.3572059,14.1321054 27.3442806,14.3156985 C27.3384055,14.3857537 27.3360555,14.479966 27.2937546,14.519825 C27.1468769,14.6575199 27.1680273,14.8338659 27.155102,15.0041727 C27.1374767,15.2397033 27.1292515,15.4764418 27.1081011,15.7107646 C27.101051,15.8013534 27.0987009,15.9197226 27.0458249,15.972868 C26.9212726,16.0996922 26.9341978,16.2494655 26.9236226,16.3992389 C26.9071723,16.6238989 26.8989472,16.8497667 26.8801468,17.0744267 C26.8730967,17.1420663 26.8578214,17.2290315 26.8143455,17.2700983 C26.7203438,17.3570635 26.7074185,17.4633543 26.7015434,17.5756843 C26.6886182,17.8317484 26.6850931,18.0890203 26.6662927,18.3450844 C26.6568926,18.4839871 26.6651177,18.6337604 26.5311652,18.7352198 C26.4970895,18.7593768 26.4829893,18.822185 26.4747641,18.8704989 C26.4618389,18.950217 26.4583138,19.0335586 26.4547887,19.1156924 C26.4442135,19.3415602 26.4395134,19.5674281 26.4254132,19.7920881 C26.417188,19.9032103 26.4218881,20.0312423 26.3325864,20.1073368 C26.2409347,20.1846392 26.2315345,20.2788515 26.2268344,20.3815187 C26.2139092,20.6472455 26.203334,20.9141803 26.1939338,21.181115 C26.1892337,21.3055235 26.1880587,21.4395948 26.099932,21.5289757 C26.0012301,21.6268115 25.9918299,21.742765 25.9859548,21.8659657 C25.9742046,22.1220298 25.9718546,22.3793017 25.9518792,22.6353658 C25.943654,22.7440723 25.9295538,22.8769357 25.8661026,22.9518224 C25.7674007,23.0653602 25.7556505,23.187353 25.7486003,23.3190086 C25.7368501,23.5654099 25.7274499,23.8118112 25.7203998,24.0582125 C25.7168747,24.1729582 25.7109996,24.2937432 25.6334481,24.3770848 C25.5312212,24.4857913 25.5276961,24.6186547 25.5159459,24.7491024 C25.5006706,24.9326956 25.5030207,25.1174965 25.4924455,25.3022975 C25.4865703,25.4134197 25.4971455,25.5281654 25.4466196,25.6332483 C25.312667,25.7057193 25.2186653,25.6199619 25.1023381,25.5547381 C25.0870628,25.4472395 25.0682624,25.3373252 25.0565122,25.226203 C25.0377118,25.0317392 25.0259616,24.8372755 25.0048112,24.6440195 C24.9989361,24.5848349 24.9883609,24.5002855 24.9507602,24.4773363 C24.834433,24.4036575 24.837958,24.2901196 24.8285579,24.1802053 C24.8109325,23.9869494 24.8085825,23.7900699 24.785082,23.596814 C24.7733318,23.4989782 24.7545315,23.3745697 24.6922553,23.3141772 C24.6041286,23.2320435 24.5959034,23.1438705 24.5876783,23.0424111 C24.572403,22.8479473 24.5594778,22.6534836 24.5383274,22.4602276 C24.5324522,22.4022509 24.5160019,22.3201171 24.4760512,22.297168 C24.3691241,22.2319441 24.3679491,22.1292769 24.359724,22.0290254 C24.3456237,21.8659657 24.3420986,21.7016982 24.3303484,21.5374306 C24.3185982,21.365916 24.3244733,21.1883621 24.1658453,21.0651615 C24.1352947,21.0410045 24.1317696,20.9721571 24.1282446,20.9226352 C24.1129693,20.7173008 24.098869,20.5131743 24.0918189,20.3078398 C24.0882938,20.1798078 24.0624433,20.0566071 23.9754917,19.9672263 C23.8955902,19.8838847 23.885015,19.7908803 23.8803149,19.6870052 C23.8720897,19.5022042 23.8650396,19.3174033 23.8497643,19.1338101 C23.8450642,19.0758334 23.835664,18.9949074 23.7980633,18.965919 C23.6570606,18.8572126 23.6547106,18.7038157 23.6453104,18.5516267 C23.6347352,18.3764885 23.6312101,18.2025582 23.6194599,18.0286278 C23.6124098,17.9368313 23.6135848,17.8353719 23.5289832,17.7761873 C23.4314563,17.7085477 23.4255812,17.6058805 23.4173561,17.5044212 C23.4020808,17.3196202 23.3973807,17.1348192 23.3832804,16.9512261 C23.3785803,16.8920415 23.3774053,16.8111155 23.3409796,16.7785036 C23.1870517,16.6383931 23.1941018,16.4499685 23.1764765,16.2687911 C23.1600262,16.0948608 23.1541511,15.9209305 23.1377008,15.7470001 C23.1330007,15.6986862 23.1236005,15.6286309 23.0918749,15.6080974 C22.9673225,15.5295872 22.9708476,15.402763 22.9590974,15.2831859 C22.940297,15.0995928 22.937947,14.913584 22.9167966,14.7311987 C22.9050464,14.6309472 22.8956462,14.504123 22.834545,14.4449384 C22.7405432,14.351934 22.7358431,14.2504746 22.726443,14.1405603 C22.7158678,14.0173596 22.7193928,13.894159 22.7041175,13.7721662 C22.6853172,13.6248086 22.7111677,13.4581253 22.5501896,13.3614974 C22.5243391,13.3470032 22.516114,13.2902342 22.5114139,13.2503752 C22.4961386,13.1392531 22.4879134,13.0269231 22.4785133,12.9145931 C22.463238,12.7503255 22.4514877,12.5872658 22.4338624,12.4242062 C22.4244622,12.3420724 22.4021368,12.2708093 22.3281104,12.2140403 C22.2893347,12.185052 22.2705343,12.1101653 22.2658342,12.0533964 C22.2470339,11.8492698 22.2364587,11.6439354 22.2247084,11.4398088 C22.2188333,11.3141925 22.201208,11.1849526 22.1154314,11.0955717 C22.0343548,11.0122301 22.0226046,10.9204335 22.0179045,10.8165585 C22.0096794,10.6317575 21.9991042,10.4481644 21.9873539,10.2633634 C21.9826538,10.1921003 21.9838289,10.1111744 21.9145026,10.0713153 C21.8099256,10.0121307 21.7970003,9.91067135 21.7899502,9.80800414 C21.7770249,9.61354037 21.7687998,9.41786876 21.7605746,9.22340499 C21.7558745,9.10865928 21.7417743,8.99029003 21.6559976,8.91177982 C21.571396,8.8332696 21.5561207,8.74026519 21.5502456,8.63639013 C21.5408455,8.45158916 21.5290952,8.26678818 21.5220451,8.08319506 C21.51852,7.99864559 21.5091199,7.92496677 21.4409686,7.8621586 C21.3540169,7.78364838 21.3305165,7.66890268 21.3211163,7.55657268 C21.3093661,7.43337203 21.305841,7.31017138 21.2987909,7.18697073 C21.2929158,7.06618578 21.2976158,6.94902438 21.1754135,6.86326707 C21.1213625,6.82340803 21.1013871,6.72074082 21.0825868,6.64223061 C21.0602613,6.55526544 21.0696615,6.46830028 20.9697846,6.40911565 C20.8898831,6.36200952 20.8452323,6.23397748 20.7641557,6.20861264 C20.6572287,6.173585 20.6513536,6.06970994 20.570277,6.01052532 C19.4363805,5.86316768 18.2872087,5.9465093 17.1403869,5.93322295 C16.7526296,5.9295994 16.3648722,5.97791338 15.98299,6.00086252 C15.9277639,6.10836113 15.8983884,6.20982049 15.776186,6.22431468 C15.7468105,6.22673038 15.7033347,6.27504436 15.7009846,6.3052406 C15.6904094,6.44051974 15.5482317,6.4248177 15.4941807,6.50574361 C15.45658,6.67846609 15.508281,6.89225545 15.2709265,6.97438922 L15.2709265,6.97438922 Z M35.9830446,0.211639874 C35.9795195,0.323969877 35.9736444,0.43629988 35.9736444,0.548629884 C35.9724694,12.5679402 35.9724694,24.5872506 35.9736444,36.606561 C35.9736444,36.7200988 35.9795195,36.8324288 35.9830446,36.9447588 L0.248266334,36.9447588 L0.248266334,0.211639874 L35.9830446,0.211639874 Z" id="Fill-3"></path>
            <path d="M168.028408,6.90517944 C168.016658,6.79768084 167.964957,6.73366481 167.85803,6.72520987 C167.788704,6.71917062 167.718202,6.70829997 167.651226,6.69139008 C167.606575,6.67931159 167.546649,6.66481739 167.524324,6.62978976 C167.446772,6.51021266 167.328095,6.49813416 167.210593,6.48001642 C167.091915,6.46310653 166.972063,6.45827513 166.853386,6.43774169 C166.767609,6.42445534 166.680658,6.411169 166.619557,6.32178813 C166.592531,6.28313695 166.51733,6.26501921 166.462104,6.26018781 C166.234149,6.23844652 166.003845,6.22999157 165.77589,6.20825028 C165.639588,6.19496394 165.493885,6.20583458 165.391658,6.07297114 C165.366983,6.0403592 165.302357,6.0331121 165.254181,6.02828071 C165.144904,6.01741006 165.034451,6.00895511 164.925174,6.00774726 C164.075633,5.99808447 163.226092,5.98359027 162.376551,5.98238243 C158.598854,5.97996673 154.822333,5.98117458 151.044636,5.98238243 C150.934184,5.98238243 150.824907,5.98117458 150.714455,5.98721382 C150.658054,5.98962952 150.602828,6.00774726 150.528801,6.02103361 C150.526451,6.17805404 150.521751,6.31937244 150.521751,6.46189868 L150.521751,30.6841125 C150.521751,30.7759091 150.518226,30.8689135 150.522926,30.9607101 C150.526451,31.0198947 150.541726,31.0778715 150.551127,31.1358482 C150.72033,31.1817465 150.881308,31.1660445 151.039936,31.1660445 C154.817633,31.1672523 158.594154,31.1684602 162.371851,31.1660445 C163.14149,31.1660445 163.91113,31.1551738 164.68077,31.1479267 C164.849973,31.1467189 165.020351,31.1406796 165.189554,31.129809 C165.257706,31.1249776 165.347007,31.1225619 165.388133,31.0802872 C165.523261,30.9389688 165.691289,30.9413845 165.859317,30.9305138 C166.059071,30.9172275 166.258825,30.9087725 166.457403,30.8918626 C166.512629,30.8870312 166.589006,30.8737449 166.617206,30.8350937 C166.707683,30.7106852 166.839286,30.7094774 166.963838,30.6877361 C167.07194,30.6696183 167.183567,30.672034 167.291669,30.6551241 C167.379796,30.6418378 167.465573,30.6188887 167.520799,30.5282999 C167.543124,30.4920645 167.59835,30.4666996 167.641826,30.4570368 C167.748753,30.431672 167.856855,30.4183856 167.960257,30.4002679 C167.994333,30.3398754 168.023708,30.2879379 168.049559,30.2432475 C168.187036,30.2142591 168.312764,30.1864785 168.434966,30.158698 C168.465517,30.0970977 168.491367,30.0439523 168.519568,29.9859755 C168.620619,29.973897 168.713446,29.9678578 168.778072,29.861567 C168.836824,29.7661469 168.948451,29.7262879 169.062428,29.7105858 C169.089453,29.7069623 169.115304,29.6876367 169.136454,29.6791817 C169.162305,29.6151657 169.185805,29.5596046 169.206956,29.5100828 C169.272757,29.4907572 169.329158,29.4738473 169.380859,29.4593531 C169.404359,29.3941293 169.42551,29.3361525 169.445485,29.2793836 C169.505411,29.260058 169.561812,29.2419402 169.618213,29.2238225 C169.641714,29.1549751 169.662864,29.0885433 169.68284,29.0293587 C169.749816,29.0076174 169.806217,28.9907075 169.854393,28.9750055 C169.874368,28.9037424 169.890819,28.8457656 169.907269,28.7914124 C169.969545,28.7684632 170.024771,28.7479298 170.081172,28.7273963 C170.097623,28.6645882 170.098798,28.593325 170.134048,28.5522582 C170.176349,28.5039442 170.248025,28.480995 170.305601,28.4483831 C170.332627,28.3324296 170.358477,28.2237231 170.384328,28.1089774 C170.445429,28.079989 170.50653,28.0497928 170.574682,28.015973 C170.558231,27.8082229 170.661633,27.6620731 170.806161,27.5497431 C170.812036,27.4857271 170.812036,27.4337895 170.822611,27.3842677 C170.848462,27.269522 170.836712,27.133035 170.985939,27.084721 C171.01179,27.0762661 171.029415,27.0182893 171.036465,26.980846 C171.051741,26.8999201 171.052916,26.8165784 171.068191,26.7368604 C171.076416,26.6885464 171.089341,26.6172833 171.121067,26.6039969 C171.249144,26.5460201 171.243269,26.4240273 171.26442,26.3189444 C171.28557,26.2090301 171.282045,26.0930766 171.29732,25.9819544 C171.310246,25.8817029 171.311421,25.7669572 171.398372,25.7017333 C171.475924,25.6437566 171.485324,25.5724935 171.491199,25.4891518 C171.506474,25.2838174 171.520575,25.0796909 171.541725,24.8755643 C171.548775,24.8163797 171.558175,24.733038 171.596951,24.7076732 C171.719153,24.6243316 171.715628,24.4999231 171.721503,24.3791381 C171.736779,24.0711365 171.743829,23.7631349 171.756754,23.4563411 C171.763804,23.2715402 171.777904,23.0915706 171.887181,22.9285109 C171.930657,22.8669106 171.937707,22.7739062 171.947108,22.6941881 C171.958858,22.6023915 171.956508,22.5093871 171.956508,22.4175906 C171.964733,20.3727014 171.974133,18.32902 171.977658,16.2853387 C171.978833,15.7104023 171.961208,15.1342581 171.952983,14.5593217 C171.950633,14.4349132 171.955333,14.3032576 171.880131,14.204214 C171.792005,14.0894683 171.780254,13.9590205 171.768504,13.8285728 C171.752054,13.6437718 171.749704,13.4589708 171.741479,13.2741699 C171.733254,13.0797061 171.727378,12.8840345 171.714453,12.6895707 C171.710928,12.6303861 171.706228,12.5446288 171.668627,12.5180561 C171.522925,12.4093496 171.539375,12.2499135 171.520575,12.101348 C171.505299,11.9793552 171.505299,11.8561545 171.495899,11.7329539 C171.488849,11.6218317 171.488849,11.5167488 171.384272,11.4321994 C171.331396,11.3899246 171.317296,11.2872574 171.30202,11.2087472 C171.28322,11.1181585 171.284395,11.0251541 171.27382,10.9333575 C171.256195,10.784792 171.274995,10.6205245 171.106967,10.5335593 C171.082291,10.520273 171.076416,10.4622962 171.069366,10.4224372 C171.057616,10.3620447 171.048216,10.3004444 171.047041,10.2388441 C171.04469,10.1410083 171.022365,10.062498 170.927188,10.0117684 C170.889588,9.99123491 170.862562,9.93446599 170.850812,9.88856771 C170.827311,9.80039469 170.817911,9.70859813 170.803811,9.61680157 C170.74506,9.54795415 170.672208,9.48635382 170.632258,9.4078436 C170.588782,9.31967059 170.577032,9.21579553 170.550006,9.11795973 C170.49478,9.09259489 170.440729,9.06964575 170.390203,9.0466966 C170.358477,8.92228811 170.329102,8.80391886 170.296201,8.67709466 C170.192799,8.65656122 170.101148,8.61911788 170.101148,8.48746229 C170.101148,8.42465411 170.054147,8.40049712 170.002446,8.39204218 C169.920194,8.37996368 169.881418,8.3340654 169.875543,8.24951594 C169.873193,8.22052755 169.856743,8.17342142 169.840293,8.16979787 C169.72044,8.14684873 169.639364,8.0924955 169.629964,7.95480066 C169.628789,7.93789076 169.582963,7.91131808 169.559462,7.91131808 C169.41611,7.91373377 169.42316,7.78690958 169.383209,7.70115226 C169.317408,7.67820312 169.253957,7.65646183 169.199905,7.63834409 C169.17053,7.56828882 169.148204,7.51272774 169.141154,7.4970257 C169.001327,7.42576258 168.895575,7.37140935 168.790998,7.31826397 C168.751047,7.16124354 168.604169,7.19023192 168.510167,7.15158074 C168.480792,7.08514902 168.457291,7.03079579 168.433791,6.97885826 C168.302188,6.95470127 168.184686,6.93416783 168.028408,6.90517944 L168.028408,6.90517944 Z M142.59035,36.9443965 C142.597401,36.8320665 142.609151,36.7209443 142.609151,36.6086143 C142.610326,24.5880961 142.610326,12.5675779 142.609151,0.54705968 C142.609151,0.435937526 142.597401,0.323607522 142.59035,0.211277519 L177.546089,0.211277519 L177.546089,36.9443965 L142.59035,36.9443965 Z" id="Fill-5"></path>
            <path d="M45.355375,27.0777155 C45.6162299,27.0559742 45.8947102,27.0704684 46.1731905,27.0680527 C46.4422706,27.065637 46.7125257,27.0668449 46.9827808,27.0668449 L47.8217468,27.0668449 L48.6313371,27.0668449 L49.4703031,27.0668449 L50.2798934,27.0668449 L51.1153343,27.0668449 C51.155285,27.0028288 51.1752604,26.9315657 51.2199113,26.9037852 C51.3691391,26.8156122 51.366789,26.6767095 51.366789,26.5305597 C51.364439,25.7188848 51.365614,24.9072099 51.365614,24.0955351 L51.365614,10.8442182 C51.365614,10.7620845 51.362089,10.6799507 51.366789,10.5978169 C51.3738392,10.4589142 51.3585639,10.3357136 51.2246113,10.252372 C51.1787855,10.2245914 51.1599851,10.1521205 51.1188593,10.083273 L50.7687027,10.083273 C49.0801956,10.083273 47.3916886,10.0844809 45.7020065,10.083273 C45.5833293,10.083273 45.464652,10.0784416 45.3659502,10.0772338 C45.2554981,9.95403315 45.2707733,9.8260011 45.2707733,9.70521615 C45.2684233,9.25348044 45.2695983,8.80174473 45.2695983,8.34880116 C45.2695983,7.68206824 45.2684233,7.01412747 45.2707733,6.34618669 C45.2719484,5.97658475 45.2860486,5.96450625 45.6397303,5.9608827 C45.6902563,5.95967485 45.7396072,5.9608827 45.7901332,5.9608827 C51.0765585,5.9608827 56.3629839,5.95967485 61.6494092,5.96209055 C61.8056872,5.96209055 61.9678402,5.93310217 62.1241182,6.01282023 C62.1335184,6.05267927 62.1487937,6.09133045 62.1487937,6.13118948 C62.1499687,7.39460006 62.1499687,8.65801064 62.1487937,9.92142121 C62.1487937,9.9600724 62.1323434,9.99993143 62.1241182,10.0349591 C62.0171912,10.1098457 61.904389,10.0820652 61.797462,10.0820652 C61.1382745,10.0856887 60.479087,10.083273 59.8187245,10.083273 C58.7294788,10.083273 57.6402331,10.083273 56.5509874,10.0844809 C56.4135098,10.0844809 56.2725072,10.0699867 56.1256294,10.1352106 C56.1115291,10.2004344 56.0892037,10.268074 56.0833286,10.3369214 C56.0751034,10.4395886 56.0762784,10.5422559 56.0762784,10.6449231 C56.0762784,15.9353039 56.0762784,21.2256847 56.0774535,26.5160655 C56.0774535,26.6779173 56.0598281,26.8433927 56.1291544,27.0136995 C56.1914306,27.0294015 56.2572319,27.0547664 56.3242081,27.0608056 C56.42291,27.0692606 56.5239619,27.0668449 56.6238388,27.0668449 C58.3323212,27.0668449 60.0419787,27.0668449 61.7504611,27.0680527 C61.8679634,27.0680527 61.9878156,27.0547664 62.0947427,27.0873783 C62.1722941,27.177967 62.1511437,27.274595 62.1511437,27.3639758 C62.1534938,27.7855153 62.1523188,28.2058469 62.1523188,28.6273864 C62.1523188,29.3472647 62.1534938,30.0659352 62.1523188,30.7846056 C62.1523188,30.8969356 62.1464436,31.0080578 62.1429186,31.1312584 C62.0747673,31.1493762 62.0195412,31.1711174 61.9631402,31.174741 C61.8632633,31.1819881 61.7633864,31.1783645 61.6635095,31.1783645 L45.7748579,31.1783645 C45.6362053,31.1783645 45.4963776,31.1735331 45.3436247,31.1711174 C45.3177742,31.0950229 45.2883987,31.0322148 45.2766485,30.965783 C45.2648982,30.8957278 45.2695983,30.8220489 45.2695983,30.7507858 C45.2695983,29.6613056 45.2684233,28.5730332 45.2707733,27.4847608 C45.2707733,27.3531052 45.2484479,27.2154103 45.355375,27.0777155" id="Fill-7"></path>
            <path d="M130.20256,27.0585107 C130.228411,26.992079 130.233111,26.9256472 130.267187,26.9002824 C130.42464,26.7843289 130.404664,26.6176456 130.404664,26.4545859 C130.404664,25.3445723 130.405839,24.2357664 130.404664,23.1257527 C130.404664,22.9397439 130.417589,22.7585665 130.491616,22.5677263 C130.542142,22.5592713 130.598543,22.5399457 130.656119,22.5399457 C131.945118,22.5387379 133.234118,22.5399457 134.523117,22.5399457 C134.552493,22.5399457 134.581868,22.5471928 134.619469,22.5520242 C134.67587,22.6269109 134.739321,22.7030054 134.793372,22.7851392 C134.819223,22.8249982 134.840373,22.8757279 134.846248,22.922834 C134.855649,23.0037599 134.852124,23.0871015 134.852124,23.1692353 L134.852124,30.7195025 C134.852124,30.8402875 134.845073,30.9622803 134.841548,31.0709867 C134.728746,31.1555362 134.622994,31.1760696 134.511367,31.1772775 C134.431466,31.1784853 134.351564,31.1784853 134.271663,31.1784853 C127.55641,31.1784853 120.841158,31.1784853 114.125905,31.1772775 C113.987253,31.1772775 113.849775,31.1724461 113.697022,31.1688225 C113.684097,31.0842731 113.664121,31.0166335 113.664121,30.9477861 C113.662946,29.736313 113.662946,28.5236321 113.664121,27.3121591 C113.664121,27.2433117 113.678222,27.1732564 113.685272,27.1007854 C113.802774,27.0500557 113.914401,27.0681735 114.021328,27.0681735 C114.860294,27.0657578 115.700435,27.0669656 116.539401,27.0669656 L116.880157,27.0669656 C116.897783,26.9824162 116.918933,26.9159844 116.923633,26.8483449 C116.931858,26.7360149 116.933033,26.622477 116.933033,26.5089392 L116.933033,10.6390046 C116.933033,10.4662821 116.945959,10.2911439 116.889558,10.1111744 C116.786156,10.0664839 116.675704,10.0846017 116.568777,10.0846017 C115.728636,10.0833938 114.88967,10.0833938 114.049529,10.0833938 L113.711122,10.0833938 C113.692322,10.0109229 113.671172,9.95536178 113.665296,9.89738501 C113.658246,9.82732974 113.662946,9.75485877 113.662946,9.6823878 C113.662946,8.57358196 113.661771,7.46356827 113.662946,6.35476243 C113.662946,6.24243242 113.667646,6.13131027 113.671172,6.00931747 C113.742848,5.99119973 113.798074,5.96945844 113.854475,5.96583489 C113.954352,5.95737994 114.054229,5.96100349 114.154106,5.96100349 C120.760081,5.95979564 127.364881,5.95979564 133.969682,5.96100349 C134.177661,5.96100349 134.389165,5.93805435 134.600669,6.0660864 C134.606544,6.16029866 134.618294,6.26055017 134.618294,6.36080167 C134.619469,8.75475938 134.619469,11.1475092 134.619469,13.5414669 L134.619469,13.8071938 C134.550143,13.8663785 134.472591,13.9001982 134.449091,13.9569672 C134.39034,14.103117 134.282238,14.1127798 134.15651,14.1127798 C132.936837,14.1115719 131.718339,14.1127798 130.498666,14.1115719 C130.430515,14.1115719 130.363538,14.0958699 130.301262,14.0886228 C130.19316,13.9146924 130.16966,13.7359307 130.170835,13.548714 C130.173185,12.634372 130.170835,11.7200299 130.170835,10.8056878 C130.170835,10.7235541 130.170835,10.6414203 130.16966,10.5592865 C130.16966,10.4650743 130.152034,10.3817327 130.080358,10.3080538 C130.026307,10.2537006 129.999281,10.1727747 129.954631,10.0942645 L121.871652,10.0942645 C121.788226,10.1763982 121.709499,10.2537006 121.638998,10.3213402 C121.606097,10.7175148 121.615497,15.7627022 121.649573,16.0091035 C121.821126,16.0936529 122.00913,16.0996922 122.198308,16.0984843 L124.745757,16.0984843 L127.833715,16.0984843 C127.924192,16.0984843 128.014669,16.0972765 128.10397,16.1021079 C128.277874,16.1117707 128.336625,16.1612925 128.369526,16.3315993 C128.381276,16.3919918 128.381276,16.4547999 128.381276,16.5164003 C128.382451,17.6457395 128.382451,18.7762867 128.381276,19.905626 C128.381276,19.9756812 128.368351,20.0457365 128.360125,20.1278703 C128.286099,20.1447802 128.220298,20.1677293 128.153321,20.1725607 C128.053445,20.1810156 127.953568,20.1761842 127.853691,20.1761842 C126.014781,20.1761842 124.175871,20.1761842 122.336961,20.1773921 C122.247659,20.1773921 122.157183,20.1773921 122.067881,20.1785999 C121.965654,20.1798078 121.875177,20.1906784 121.812901,20.3005927 C121.782351,20.3537381 121.701274,20.3778951 121.647223,20.4129227 C121.611972,20.683481 121.597872,26.0535799 121.630773,26.8121094 C121.707149,26.8845804 121.795276,26.9667141 121.892803,27.0585107 L130.20256,27.0585107 Z" id="Fill-9"></path>
            <path d="M84.3544826,10.3999712 C84.4849101,10.2912647 84.6176876,10.2574449 84.7622154,10.2610685 C84.8421169,10.2634842 84.9220184,10.2610685 85.0019199,10.2610685 C87.3496145,10.2610685 89.697309,10.2586528 92.0450036,10.2634842 C92.593739,10.264692 93.1424744,10.2912647 93.6923849,10.3081746 C93.7910867,10.3117982 93.8897886,10.3275002 93.9978907,10.3383709 C94.068392,10.4398302 94.1059927,10.5883957 94.2657958,10.5654466 C94.3257219,10.6681138 94.2904712,10.8154714 94.4338239,10.8480833 C94.4702496,10.9410878 94.5160755,11.0316765 94.543101,11.1270966 C94.5642514,11.2056068 94.5630764,11.2901563 94.5677765,11.37229 C94.5724766,11.4363061 94.5842268,11.4942828 94.6418029,11.5305183 C94.7193544,11.5788323 94.7369797,11.6609661 94.7487299,11.741892 C94.7640052,11.8530141 94.7781055,11.9653441 94.7792805,12.0776741 C94.7816305,13.1357503 94.7816305,14.1938265 94.7792805,15.2506948 C94.7781055,15.3835582 94.7569551,15.5164217 94.7369797,15.6480773 C94.7299296,15.6951834 94.7111292,15.7616151 94.6770536,15.7809407 C94.5795267,15.8365018 94.5760016,15.9246748 94.5666015,16.0164714 C94.5548512,16.1288014 94.5384009,16.2399235 94.5231256,16.3522535 C94.5125504,16.436803 94.4914,16.5080661 94.3950482,16.5358466 C94.281071,16.5684586 94.3503974,16.7061534 94.281071,16.7677537 C94.225845,16.8184834 94.1142179,16.7870793 94.1001176,16.901825 C94.0977676,16.9308134 94.0871924,16.9658411 94.067217,16.9839588 C93.9826154,17.0612612 93.8110621,16.9960373 93.7816866,17.1663441 C93.6782846,17.1953325 93.5748826,17.238815 93.4691306,17.2484778 C93.2905272,17.2665956 93.1095738,17.2678034 92.9297954,17.2678034 C90.2131438,17.2690113 87.4953173,17.2702191 84.7786657,17.271427 C84.6270878,17.271427 84.476685,17.2774662 84.3627078,17.1494342 C84.3239321,16.9187349 84.3157069,10.7369612 84.3544826,10.3999712" id="Fill-11"></path>
            <path d="M165.647108,26.3194276 C165.466155,26.3761965 165.266401,26.3677416 165.197075,26.5803231 C165.057247,26.5984408 164.929169,26.6141429 164.788167,26.6322606 C164.710615,26.8013595 164.556687,26.8291401 164.391009,26.8327636 C164.16188,26.837595 163.931575,26.8472578 163.702446,26.8520892 C161.545105,26.901611 159.387764,26.8786619 157.230423,26.8834933 C156.830916,26.8847011 156.430233,26.8847011 156.030726,26.8822854 C155.912048,26.8822854 155.791021,26.8955718 155.664119,26.8291401 C155.657068,26.7675397 155.645318,26.6986923 155.641793,26.6286371 C155.637093,26.5573739 155.640618,26.484903 155.640618,26.412432 L155.640618,10.7333376 C155.640618,10.601682 155.644143,10.4688186 155.646493,10.3226688 C155.724045,10.3009275 155.786321,10.273147 155.852122,10.2658999 C155.940249,10.2562371 156.031901,10.2610685 156.121202,10.2610685 C158.10934,10.2610685 160.096303,10.2562371 162.08444,10.2634842 C162.834105,10.2658999 163.582594,10.2936804 164.331083,10.313006 C164.450935,10.3154217 164.569613,10.3287081 164.701215,10.3383709 C164.759966,10.4712343 164.875118,10.5207561 165.007896,10.5364582 C165.126573,10.5509524 165.253476,10.546121 165.305177,10.6934786 C165.415629,10.7369612 165.526081,10.7816516 165.656508,10.834797 C165.695284,10.8710325 165.661208,11.0002724 165.76931,11.0026881 C165.909138,11.0063116 165.917363,11.1113945 165.943214,11.2176853 C165.994915,11.2394266 166.050141,11.25996 166.104192,11.2817013 C166.111242,11.2877406 166.126517,11.2949877 166.125342,11.3010269 C166.121817,11.4568395 166.26987,11.5027378 166.329796,11.6078207 C166.387372,11.7080722 166.392072,11.8409356 166.423798,11.9762148 C166.5413,11.9979561 166.591826,12.0921683 166.604751,12.2129533 C166.617676,12.3349461 166.628252,12.4569389 166.637652,12.5801395 C166.648227,12.7033402 166.656452,12.825333 166.764554,12.9110903 C166.844456,12.9763142 166.833881,13.0789814 166.839756,13.1683622 C166.856206,13.4654932 166.865606,13.763832 166.878531,14.060963 C166.883232,14.173293 166.885582,14.2868309 166.896157,14.3991609 C166.902032,14.4583455 166.904382,14.5356479 166.939633,14.5730912 C167.05361,14.6890448 167.047735,14.8339867 167.05126,14.9753051 C167.064185,15.6529087 167.082985,16.3305122 167.082985,17.0069079 C167.082985,18.5372533 167.073585,20.0675986 167.066535,21.596736 C167.06536,21.8226039 167.054785,22.0484718 167.043035,22.2743396 C167.038334,22.3443949 167.040684,22.439815 166.999559,22.4784662 C166.877356,22.5932119 166.892632,22.736946 166.885582,22.8770565 C166.870306,23.2055916 166.863256,23.5341266 166.844456,23.8626617 C166.836231,24.012435 166.845631,24.1694555 166.701103,24.2793698 C166.662327,24.3083582 166.654102,24.3892841 166.647052,24.4484687 C166.631777,24.5704615 166.636477,24.69487 166.615326,24.815655 C166.600051,24.903828 166.581251,25.0185737 166.5225,25.0656798 C166.413223,25.1538528 166.394422,25.2601436 166.375622,25.3833442 C166.365047,25.4497759 166.334496,25.5343254 166.285145,25.5705609 C166.198194,25.6357848 166.137092,25.7010086 166.135917,25.8157543 C166.135917,25.8254171 166.131217,25.8362878 166.125342,25.8435349 C166.074816,25.9196294 165.930288,25.8616526 165.920888,25.9908925 C165.913838,26.0971833 165.848037,26.123756 165.76226,26.1370423 C165.670608,26.1503287 165.677659,26.2372938 165.647108,26.3194276" id="Fill-13"></path>
        </g>
    </g>
</svg>